event_type scenario year n_sims january february march april may june july august september october november december
hot ALL 1982 50 0 0 0 0 0 26 19 0 0 0 0 0
hot ALL 1983 50 0 0 0 0 3 37 23 0 0 0 0 0
hot ALL 1984 50 0 0 0 0 0 19 2 0 0 0 0 0
hot ALL 1985 50 0 0 0 0 0 21 1 0 0 0 0 0
hot ALL 1986 50 0 0 0 0 0 33 3 0 0 0 0 0
hot ALL 1987 50 0 0 0 0 0 43 49 23 3 0 0 0
hot ALL 1988 50 0 0 0 0 1 44 11 0 0 0 0 0
hot ALL 1989 50 0 0 0 0 0 29 6 0 0 0 0 0
hot ALL 1990 50 0 0 0 0 1 42 35 0 0 0 0 0
hot ALL 1991 50 0 0 0 0 0 44 38 1 0 0 0 0
hot ALL 1992 50 0 0 0 0 0 26 3 0 0 0 0 0
hot ALL 1993 50 0 0 0 0 0 38 26 0 0 0 0 0
hot ALL 1994 50 0 0 0 0 0 35 28 2 0 0 0 0
hot ALL 1995 50 0 0 0 0 0 45 40 0 0 0 0 0
hot ALL 1996 50 0 0 0 0 0 39 35 0 0 0 0 0
hot ALL 1997 100 0 0 0 0 1 84 85 22 3 0 0 0
hot ALL 1998 100 0 0 0 0 10 100 99 12 0 0 0 0
hot ALL 1999 100 0 0 0 0 0 88 20 0 0 0 0 0
hot ALL 2000 100 0 0 0 0 1 81 22 0 0 0 0 0
hot ALL 2001 100 0 0 0 0 1 95 56 1 0 0 0 0
hot ALL 2002 100 0 0 0 0 4 95 90 20 0 0 0 0
hot ALL 2003 100 0 0 0 0 3 93 52 1 1 0 0 0
hot ALL 2004 100 0 0 0 0 4 91 34 1 1 0 0 0
hot ALL 2005 100 0 0 0 0 14 86 35 0 0 0 0 0
hot ALL 2006 100 0 0 0 0 2 96 86 0 1 0 0 0
hot ALL 2007 100 0 0 0 0 1 90 79 1 0 0 0 0
hot ALL 2008 100 0 0 0 0 3 88 8 1 0 0 0 0
hot ALL 2009 100 0 0 0 0 1 90 76 3 0 0 0 0
hot ALL 2010 100 0 0 0 0 26 98 99 10 0 0 0 0
hot ALL 2011 400 0 0 0 0 12 383 183 2 0 0 0 0
hot ALL 2012 400 0 0 0 0 10 364 235 15 5 0 0 0
hot ALL 2013 400 0 0 0 0 15 385 187 1 4 0 0 0
hot NAT 1982 50 0 0 0 0 0 3 0 0 0 0 0 0
hot NAT 1983 50 0 0 0 0 0 10 1 0 0 0 0 0
hot NAT 1984 50 0 0 0 0 0 0 0 0 0 0 0 0
hot NAT 1985 50 0 0 0 0 0 0 0 0 0 0 0 0
hot NAT 1986 50 0 0 0 0 0 0 0 0 0 0 0 0
hot NAT 1987 50 0 0 0 0 0 29 21 0 0 0 0 0
hot NAT 1988 50 0 0 0 0 0 3 0 0 0 0 0 0
hot NAT 1989 50 0 0 0 0 0 0 0 0 0 0 0 0
hot NAT 1990 50 0 0 0 0 0 1 0 0 0 0 0 0
hot NAT 1991 50 0 0 0 0 0 4 0 0 0 0 0 0
hot NAT 1992 50 0 0 0 0 0 0 0 0 0 0 0 0
hot NAT 1993 50 0 0 0 0 0 1 0 0 0 0 0 0
hot NAT 1994 50 0 0 0 0 0 0 0 0 0 0 0 0
hot NAT 1995 50 0 0 0 0 0 8 0 0 0 0 0 0
hot NAT 1996 50 0 0 0 0 0 1 0 0 0 0 0 0
hot NAT 1997 100 0 0 0 0 0 0 0 0 0 0 0 0
hot NAT 1998 100 0 0 0 0 0 46 3 0 0 0 0 0
hot NAT 1999 100 0 0 0 0 0 0 0 0 0 0 0 0
hot NAT 2000 100 0 0 0 0 0 0 0 0 0 0 0 0
hot NAT 2001 100 0 0 0 0 0 4 0 0 0 0 0 0
hot NAT 2002 100 0 0 0 0 0 6 0 0 0 0 0 0
hot NAT 2003 100 0 0 0 0 0 3 0 0 0 0 0 0
hot NAT 2004 100 0 0 0 0 0 3 0 0 0 0 0 0
hot NAT 2005 100 0 0 0 0 0 5 0 0 0 0 0 0
hot NAT 2006 100 0 0 0 0 0 16 0 0 0 0 0 0
hot NAT 2007 100 0 0 0 0 0 1 0 0 0 0 0 0
hot NAT 2008 100 0 0 0 0 0 0 0 0 0 0 0 0
hot NAT 2009 100 0 0 0 0 0 1 0 0 0 0 0 0
hot NAT 2010 100 0 0 0 0 0 61 0 0 0 0 0 0
hot NAT 2011 400 0 0 0 0 0 6 0 0 0 0 0 0
hot NAT 2012 400 0 0 0 0 0 2 0 0 0 0 0 0
hot NAT 2013 400 0 0 0 0 0 1 0 0 0 0 0 0
cold ALL 1982 50 4 0 0 0 0 0 0 0 0 0 0 1
cold ALL 1983 50 1 0 0 0 0 0 0 0 0 0 0 0
cold ALL 1984 50 14 0 0 0 0 0 0 0 0 0 0 1
cold ALL 1985 50 13 0 0 0 0 0 0 0 0 0 0 0
cold ALL 1986 50 15 0 0 0 0 0 0 0 0 0 0 1
cold ALL 1987 50 5 0 0 0 0 0 0 0 0 0 0 1
cold ALL 1988 50 1 0 0 0 0 0 0 0 0 0 0 2
cold ALL 1989 50 14 0 0 0 0 0 0 0 0 0 0 0
cold ALL 1990 50 7 0 0 0 0 0 0 0 0 0 0 1
cold ALL 1991 50 6 0 0 0 0 0 0 0 0 0 0 1
cold ALL 1992 50 5 0 0 0 0 0 0 0 0 0 0 2
cold ALL 1993 50 10 0 0 0 0 0 0 0 0 0 0 0
cold ALL 1994 50 5 0 0 0 0 0 0 0 0 0 0 0
cold ALL 1995 50 6 0 0 0 0 0 0 0 0 0 0 0
cold ALL 1996 50 1 0 0 0 0 0 0 0 0 0 0 1
cold ALL 1997 100 13 0 0 0 0 0 0 0 0 0 0 0
cold ALL 1998 100 1 0 0 0 0 0 0 0 0 0 0 0
cold ALL 1999 100 5 0 0 0 0 0 0 0 0 0 0 0
cold ALL 2000 100 9 0 0 0 0 0 0 0 0 0 0 0
cold ALL 2001 100 10 0 0 0 0 0 0 0 0 0 0 1
cold ALL 2002 100 3 0 0 0 0 0 0 0 0 0 0 0
cold ALL 2003 100 0 0 0 0 0 0 0 0 0 0 0 0
cold ALL 2004 100 1 0 0 0 0 0 0 0 0 0 0 0
cold ALL 2005 100 3 0 0 0 0 0 0 0 0 0 0 0
cold ALL 2006 100 5 0 0 0 0 0 0 0 0 0 0 0
cold ALL 2007 100 3 0 0 0 0 0 0 0 0 0 0 1
cold ALL 2008 100 5 0 0 0 0 0 0 0 0 0 0 0
cold ALL 2009 100 4 0 0 0 0 0 0 0 0 0 0 0
cold ALL 2010 100 2 0 0 0 0 0 0 0 0 0 0 0
cold ALL 2011 400 18 0 0 0 0 0 0 0 0 0 0 0
cold ALL 2012 400 22 0 0 0 0 0 0 0 0 0 0 0
cold ALL 2013 400 12 0 0 0 0 0 0 0 0 0 0 0
cold NAT 1982 50 15 0 0 0 0 0 0 0 0 0 0 11
cold NAT 1983 50 15 0 0 0 0 0 0 0 0 0 0 11
cold NAT 1984 50 29 0 0 0 0 0 0 0 0 0 0 10
cold NAT 1985 50 39 1 0 0 0 0 0 0 0 0 0 9
cold NAT 1986 50 23 0 0 0 0 0 0 0 0 0 0 10
cold NAT 1987 50 24 0 0 0 0 0 0 0 0 0 0 1
cold NAT 1988 50 12 0 0 0 0 0 0 0 0 0 0 12
cold NAT 1989 50 33 0 0 0 0 0 0 0 0 0 0 11
cold NAT 1990 50 23 0 0 0 0 0 0 0 0 0 0 7
cold NAT 1991 50 21 0 0 0 0 0 0 0 0 0 0 7
cold NAT 1992 50 21 0 0 0 0 0 0 0 0 0 0 9
cold NAT 1993 50 23 1 0 0 0 0 0 0 0 0 0 7
cold NAT 1994 50 31 0 0 0 0 0 0 0 0 0 0 9
cold NAT 1995 50 20 0 0 0 0 0 0 0 0 0 0 4
cold NAT 1996 50 18 0 0 0 0 0 0 0 0 0 0 10
cold NAT 1997 100 55 0 0 0 0 0 0 0 0 0 0 14
cold NAT 1998 100 34 0 0 0 0 0 0 0 0 0 0 8
cold NAT 1999 100 52 2 0 0 0 0 0 0 0 0 0 7
cold NAT 2000 100 55 1 0 0 0 0 0 0 0 0 0 20
cold NAT 2001 100 55 1 0 0 0 0 0 0 0 0 0 9
cold NAT 2002 100 51 0 0 0 0 0 0 0 0 0 0 7
cold NAT 2003 100 28 0 0 0 0 0 0 0 0 0 0 7
cold NAT 2004 100 31 0 0 0 0 0 0 0 0 0 0 11
cold NAT 2005 100 39 1 0 0 0 0 0 0 0 0 0 5
cold NAT 2006 100 38 1 0 0 0 0 0 0 0 0 0 11
cold NAT 2007 100 36 0 0 0 0 0 0 0 0 0 0 10
cold NAT 2008 100 57 0 0 0 0 0 0 0 0 0 0 9
cold NAT 2009 100 45 1 0 0 0 0 0 0 0 0 0 20
cold NAT 2010 100 47 0 0 0 0 0 0 0 0 0 0 7
cold NAT 2011 400 160 0 0 0 0 0 0 0 0 0 0 77
cold NAT 2012 400 244 0 0 0 0 0 0 0 0 0 0 43
cold NAT 2013 400 166 1 0 0 0 0 0 0 0 0 0 80
wet ALL 1982 50 0 0 0 0 0 0 0 0 2 0 0 0
wet ALL 1983 50 0 0 0 0 0 0 0 1 2 0 0 0
wet ALL 1984 50 0 0 0 0 0 0 0 2 1 0 0 0
wet ALL 1985 50 0 0 0 0 0 0 0 0 1 0 0 0
wet ALL 1986 50 0 0 0 0 0 0 0 0 0 0 0 0
wet ALL 1987 50 0 0 0 0 0 0 0 0 0 0 0 0
wet ALL 1988 50 0 0 0 0 0 0 0 0 2 0 0 0
wet ALL 1989 50 0 0 0 0 0 0 0 1 13 0 0 0
wet ALL 1990 50 0 0 0 0 0 0 0 0 2 0 0 0
wet ALL 1991 50 0 0 0 0 0 0 0 0 0 0 0 0
wet ALL 1992 50 0 0 0 0 0 0 0 0 0 0 0 0
wet ALL 1993 50 0 0 0 0 0 0 0 0 5 0 0 0
wet ALL 1994 50 0 0 0 0 0 0 0 0 0 0 0 0
wet ALL 1995 50 0 0 0 0 0 0 0 1 7 0 0 0
wet ALL 1996 50 0 0 0 0 0 0 0 0 1 0 0 0
wet ALL 1997 100 0 0 0 0 0 0 0 0 0 0 0 0
wet ALL 1998 100 0 0 0 0 0 0 0 0 3 0 0 0
wet ALL 1999 100 0 0 0 0 0 0 0 0 17 0 0 0
wet ALL 2000 100 0 0 0 0 0 0 0 1 1 0 0 0
wet ALL 2001 100 0 0 0 0 0 0 0 2 16 0 0 0
wet ALL 2002 100 0 0 0 0 0 0 0 0 3 0 0 0
wet ALL 2003 100 0 0 0 0 0 0 0 1 16 0 0 0
wet ALL 2004 100 0 0 0 0 0 0 0 2 17 0 0 0
wet ALL 2005 100 0 0 0 0 0 0 0 0 40 0 0 0
wet ALL 2006 100 0 0 0 0 0 0 0 10 22 0 0 0
wet ALL 2007 100 0 0 0 0 0 0 0 1 17 1 0 0
wet ALL 2008 100 0 0 0 0 0 0 0 5 11 0 0 0
wet ALL 2009 100 0 0 0 0 0 0 0 1 10 0 0 0
wet ALL 2010 100 0 0 0 0 0 0 0 0 9 0 0 0
wet ALL 2011 400 0 0 0 0 0 0 0 1 93 5 0 0
wet ALL 2012 400 0 0 0 0 0 0 0 7 36 3 0 0
wet ALL 2013 400 0 0 0 0 0 0 0 5 37 0 0 0
wet NAT 1982 50 0 0 0 0 0 0 0 0 0 0 0 0
wet NAT 1983 50 0 0 0 0 0 0 0 0 3 0 0 0
wet NAT 1984 50 0 0 0 0 0 0 0 0 3 0 0 0
wet NAT 1985 50 0 0 0 0 0 0 0 1 6 0 0 0
wet NAT 1986 50 0 0 0 0 0 0 0 0 1 0 0 0
wet NAT 1987 50 0 0 0 0 0 0 0 0 1 0 0 0
wet NAT 1988 50 0 0 0 0 0 0 0 1 2 0 0 0
wet NAT 1989 50 0 0 0 0 0 0 0 2 11 0 0 0
wet NAT 1990 50 0 0 0 0 0 0 0 0 2 0 0 0
wet NAT 1991 50 0 0 0 0 0 0 0 0 0 0 0 0
wet NAT 1992 50 0 0 0 0 0 0 0 0 0 0 0 0
wet NAT 1993 50 0 0 0 0 0 0 0 0 4 0 0 0
wet NAT 1994 50 0 0 0 0 0 0 0 1 0 0 0 0
wet NAT 1995 50 0 0 0 0 0 0 0 1 6 0 0 0
wet NAT 1996 50 0 0 0 0 0 0 0 0 1 0 0 0
wet NAT 1997 100 0 0 0 0 0 0 0 0 0 0 0 0
wet NAT 1998 100 0 0 0 0 0 0 0 0 1 0 0 0
wet NAT 1999 100 0 0 0 0 0 0 0 6 27 0 0 0
wet NAT 2000 100 0 0 0 0 0 0 0 0 3 0 0 0
wet NAT 2001 100 0 0 0 0 0 0 0 1 16 0 0 0
wet NAT 2002 100 0 0 0 0 0 0 0 0 1 1 0 0
wet NAT 2003 100 0 0 0 0 0 0 0 8 9 0 0 0
wet NAT 2004 100 0 0 0 0 0 0 0 2 23 0 0 0
wet NAT 2005 100 0 0 0 0 0 0 0 7 54 0 0 0
wet NAT 2006 100 0 0 0 0 0 0 0 22 43 0 0 0
wet NAT 2007 100 0 0 0 0 0 0 0 2 23 0 0 0
wet NAT 2008 100 0 0 0 0 0 0 0 4 22 0 0 0
wet NAT 2009 100 0 0 0 0 0 0 0 8 7 0 0 0
wet NAT 2010 100 0 0 0 0 0 0 0 1 12 0 0 0
wet NAT 2011 400 0 0 0 0 0 0 0 21 152 8 0 0
wet NAT 2012 400 0 0 0 0 0 0 0 41 95 2 0 0
wet NAT 2013 400 0 0 0 0 0 0 0 32 30 0 0 0
