event_type scenario year n_sims january february march april may june july august september october november december
hot ALL 1982 50 0 0 0 0 0 0 0 0 24 31 2 0
hot ALL 1983 50 0 0 0 0 0 0 0 0 39 43 3 0
hot ALL 1984 50 0 0 0 0 0 0 0 0 0 0 0 0
hot ALL 1985 50 0 0 0 0 0 0 0 0 0 0 0 0
hot ALL 1986 50 0 0 0 0 0 0 0 0 0 2 0 0
hot ALL 1987 50 0 0 0 0 0 0 0 7 50 49 36 0
hot ALL 1988 50 0 0 0 0 0 0 0 0 15 2 0 0
hot ALL 1989 50 0 0 0 0 0 0 0 0 0 2 0 0
hot ALL 1990 50 0 0 0 0 0 0 0 0 20 39 14 0
hot ALL 1991 50 0 0 0 0 0 0 0 0 38 44 17 0
hot ALL 1992 50 0 0 0 0 0 0 0 0 42 46 26 0
hot ALL 1993 50 0 0 0 0 0 0 0 0 25 30 2 0
hot ALL 1994 50 0 0 0 0 0 0 0 0 36 44 24 0
hot ALL 1995 50 0 0 0 0 0 0 0 0 49 50 23 0
hot ALL 1996 50 0 0 0 0 0 0 0 0 14 25 1 0
hot ALL 1997 100 0 0 0 0 0 0 0 7 100 100 80 0
hot ALL 1998 100 0 0 1 0 0 0 0 18 99 100 30 0
hot ALL 1999 100 0 0 0 0 0 0 0 0 74 70 0 0
hot ALL 2000 100 0 0 0 0 0 0 0 0 40 73 43 0
hot ALL 2001 100 0 0 0 0 0 0 0 0 95 95 14 0
hot ALL 2002 100 0 0 0 0 0 0 0 0 90 99 61 0
hot ALL 2003 100 0 0 0 0 0 0 0 4 99 100 81 0
hot ALL 2004 100 0 0 0 0 0 0 0 0 99 100 88 11
hot ALL 2005 100 0 0 0 0 0 0 0 20 100 100 52 0
hot ALL 2006 100 0 0 0 0 0 0 0 1 100 100 46 0
hot ALL 2007 100 0 0 0 0 0 0 0 0 99 96 3 0
hot ALL 2008 100 0 0 0 0 0 0 0 0 99 100 40 0
hot ALL 2009 100 0 0 0 0 0 0 0 0 95 100 96 3
hot ALL 2010 100 0 1 0 0 0 0 0 20 100 100 29 0
hot ALL 2011 400 0 0 0 0 0 0 0 0 371 367 138 3
hot ALL 2012 400 0 0 0 0 0 0 0 71 400 400 385 5
hot ALL 2013 400 0 0 0 0 0 0 0 0 396 400 342 6
hot NAT 1982 50 0 0 0 0 0 0 0 0 1 2 0 0
hot NAT 1983 50 0 0 0 0 0 0 0 0 5 5 0 0
hot NAT 1984 50 0 0 0 0 0 0 0 0 0 0 0 0
hot NAT 1985 50 0 0 0 0 0 0 0 0 0 0 0 0
hot NAT 1986 50 0 0 0 0 0 0 0 0 0 0 0 0
hot NAT 1987 50 0 0 0 0 0 0 0 0 17 9 0 0
hot NAT 1988 50 0 0 0 0 0 0 0 0 0 0 0 0
hot NAT 1989 50 0 0 0 0 0 0 0 0 0 0 0 0
hot NAT 1990 50 0 0 0 0 0 0 0 0 0 1 0 0
hot NAT 1991 50 0 0 0 0 0 0 0 0 0 2 0 0
hot NAT 1992 50 0 0 0 0 0 0 0 0 0 4 0 0
hot NAT 1993 50 0 0 0 0 0 0 0 0 0 0 0 0
hot NAT 1994 50 0 0 0 0 0 0 0 0 1 1 0 0
hot NAT 1995 50 0 0 0 0 0 0 0 0 10 6 0 0
hot NAT 1996 50 0 0 0 0 0 0 0 0 0 0 0 0
hot NAT 1997 100 0 0 0 0 0 0 0 0 35 47 0 0
hot NAT 1998 100 0 0 0 0 0 0 0 0 22 20 0 0
hot NAT 1999 100 0 0 0 0 0 0 0 0 0 0 0 0
hot NAT 2000 100 0 0 0 0 0 0 0 0 0 0 0 0
hot NAT 2001 100 0 0 0 0 0 0 0 0 0 0 0 0
hot NAT 2002 100 0 0 0 0 0 0 0 0 0 3 0 0
hot NAT 2003 100 0 0 0 0 0 0 0 0 5 8 0 0
hot NAT 2004 100 0 0 0 0 0 0 0 0 2 12 0 0
hot NAT 2005 100 0 0 0 0 0 0 0 0 18 16 0 0
hot NAT 2006 100 0 0 0 0 0 0 0 0 1 3 0 0
hot NAT 2007 100 0 0 0 0 0 0 0 0 0 0 0 0
hot NAT 2008 100 0 0 0 0 0 0 0 0 0 5 0 0
hot NAT 2009 100 0 0 0 0 0 0 0 0 0 1 0 0
hot NAT 2010 100 0 0 0 0 0 0 0 0 0 1 0 0
hot NAT 2011 400 0 0 0 0 0 0 0 0 0 0 0 0
hot NAT 2012 400 0 0 0 0 0 0 0 0 55 36 0 0
hot NAT 2013 400 0 0 0 0 0 0 0 0 0 0 0 0
cold ALL 1982 50 0 1 1 0 0 0 0 0 0 0 0 0
cold ALL 1983 50 0 0 0 0 0 0 0 0 0 0 0 0
cold ALL 1984 50 0 0 1 0 0 22 7 0 0 0 0 3
cold ALL 1985 50 18 15 6 0 3 18 10 0 0 0 0 0
cold ALL 1986 50 0 3 0 0 0 1 0 0 0 0 0 0
cold ALL 1987 50 0 0 0 0 0 0 0 0 0 0 0 0
cold ALL 1988 50 0 0 0 0 0 0 0 0 0 0 0 0
cold ALL 1989 50 1 2 4 7 6 21 0 0 0 0 0 0
cold ALL 1990 50 0 0 0 0 0 0 0 0 0 0 0 0
cold ALL 1991 50 0 0 0 0 0 0 0 0 0 0 0 0
cold ALL 1992 50 0 0 0 0 0 0 0 0 0 0 0 0
cold ALL 1993 50 1 1 0 0 0 0 0 0 0 0 0 0
cold ALL 1994 50 2 0 0 0 0 0 0 0 0 0 0 0
cold ALL 1995 50 0 0 0 0 0 0 0 0 0 0 0 0
cold ALL 1996 50 0 0 0 0 0 0 0 0 0 0 0 0
cold ALL 1997 100 0 0 0 0 0 0 0 0 0 0 0 0
cold ALL 1998 100 0 0 0 0 0 0 0 0 0 0 0 0
cold ALL 1999 100 0 0 0 0 0 5 0 0 0 0 0 0
cold ALL 2000 100 0 1 5 0 0 0 0 0 0 0 0 0
cold ALL 2001 100 0 0 0 0 0 0 0 0 0 0 0 0
cold ALL 2002 100 0 0 0 0 0 0 0 0 0 0 0 0
cold ALL 2003 100 0 0 0 0 0 0 0 0 0 0 0 0
cold ALL 2004 100 0 0 0 0 0 0 0 0 0 0 0 0
cold ALL 2005 100 0 0 0 0 0 0 0 0 0 0 0 0
cold ALL 2006 100 0 0 0 0 0 0 0 0 0 0 0 0
cold ALL 2007 100 0 0 0 0 0 0 0 0 0 0 0 0
cold ALL 2008 100 0 0 1 0 0 1 0 0 0 0 0 0
cold ALL 2009 100 0 0 0 0 0 0 0 0 0 0 0 0
cold ALL 2010 100 0 0 0 0 0 0 0 0 0 0 0 0
cold ALL 2011 400 0 0 0 0 0 0 0 0 0 0 0 0
cold ALL 2012 400 0 0 0 0 0 0 0 0 0 0 0 0
cold ALL 2013 400 0 0 0 0 0 0 0 0 0 0 0 0
cold NAT 1982 50 31 40 37 32 14 35 46 0 0 0 0 0
cold NAT 1983 50 0 0 0 0 0 10 23 0 0 0 0 1
cold NAT 1984 50 24 36 46 46 50 50 50 0 0 0 3 48
cold NAT 1985 50 50 50 50 50 50 50 50 0 0 0 0 28
cold NAT 1986 50 49 50 45 50 50 50 50 1 0 0 0 18
cold NAT 1987 50 15 9 2 0 0 3 0 0 0 0 0 0
cold NAT 1988 50 5 9 3 5 22 50 50 0 0 0 0 38
cold NAT 1989 50 50 50 50 50 50 50 50 0 0 0 0 1
cold NAT 1990 50 43 30 19 16 21 50 46 0 0 0 0 2
cold NAT 1991 50 13 19 32 29 40 48 48 0 0 0 0 0
cold NAT 1992 50 19 3 0 0 0 50 50 1 0 0 0 10
cold NAT 1993 50 46 48 42 14 20 48 50 0 0 0 0 26
cold NAT 1994 50 50 50 48 49 50 50 50 0 0 0 0 2
cold NAT 1995 50 13 14 9 6 26 50 48 0 0 0 0 0
cold NAT 1996 50 28 15 27 18 47 50 50 0 0 0 0 9
cold NAT 1997 100 48 57 84 65 80 99 94 1 0 0 0 0
cold NAT 1998 100 1 0 0 0 0 5 2 0 0 0 0 2
cold NAT 1999 100 87 97 88 95 100 100 100 0 0 0 0 13
cold NAT 2000 100 90 98 99 100 100 100 100 0 0 0 0 22
cold NAT 2001 100 96 97 87 58 82 100 99 0 0 0 0 2
cold NAT 2002 100 8 21 14 3 35 91 97 0 0 0 0 1
cold NAT 2003 100 12 15 5 17 61 100 94 0 0 0 0 1
cold NAT 2004 100 28 34 62 33 64 100 100 0 0 0 0 0
cold NAT 2005 100 1 2 0 1 4 92 75 0 0 0 0 3
cold NAT 2006 100 50 82 82 94 99 100 96 0 0 0 0 1
cold NAT 2007 100 29 44 66 40 79 99 99 0 0 0 0 53
cold NAT 2008 100 100 99 99 100 100 100 100 0 0 0 0 6
cold NAT 2009 100 99 100 100 100 100 100 100 0 0 0 0 0
cold NAT 2010 100 15 2 1 0 0 39 16 0 0 0 0 14
cold NAT 2011 400 389 397 397 395 400 400 394 0 0 0 0 28
cold NAT 2012 400 286 378 398 394 386 400 400 0 0 0 0 6
cold NAT 2013 400 246 330 170 187 345 400 400 2 0 0 0 30
wet ALL 1982 50 0 8 3 1 0 0 0 0 0 0 0 0
wet ALL 1983 50 0 0 1 0 0 0 0 0 0 0 0 0
wet ALL 1984 50 0 0 1 7 0 0 0 0 0 0 0 0
wet ALL 1985 50 1 0 3 2 0 0 0 0 0 0 0 0
wet ALL 1986 50 0 0 2 0 0 0 0 0 0 0 0 0
wet ALL 1987 50 0 1 0 1 0 0 0 0 0 0 0 0
wet ALL 1988 50 0 2 0 0 0 0 0 0 0 0 0 0
wet ALL 1989 50 0 0 0 4 0 0 0 0 0 0 0 0
wet ALL 1990 50 1 0 1 0 0 0 0 0 0 0 0 0
wet ALL 1991 50 0 1 2 3 0 0 0 0 0 0 0 0
wet ALL 1992 50 0 0 0 0 0 0 0 0 0 0 0 0
wet ALL 1993 50 1 0 0 0 0 0 0 0 0 0 0 0
wet ALL 1994 50 3 5 5 1 0 0 0 0 0 0 0 0
wet ALL 1995 50 0 1 2 0 0 0 0 0 0 0 0 0
wet ALL 1996 50 0 0 0 0 0 0 0 0 0 0 0 0
wet ALL 1997 100 0 0 5 1 0 0 0 0 0 0 0 0
wet ALL 1998 100 3 16 5 3 0 0 0 0 0 0 0 0
wet ALL 1999 100 1 6 10 1 0 0 0 0 0 0 0 0
wet ALL 2000 100 0 8 4 1 0 0 0 0 0 0 0 0
wet ALL 2001 100 0 5 1 0 0 0 0 0 0 0 0 0
wet ALL 2002 100 0 8 3 2 0 0 0 0 0 0 0 0
wet ALL 2003 100 3 6 1 1 0 0 0 0 0 0 0 0
wet ALL 2004 100 2 9 4 0 0 0 0 0 0 0 0 0
wet ALL 2005 100 0 6 4 0 0 0 0 0 0 0 0 0
wet ALL 2006 100 0 3 4 1 0 0 0 0 0 0 0 0
wet ALL 2007 100 0 6 6 0 0 0 0 0 0 0 0 0
wet ALL 2008 100 0 1 3 0 0 0 0 0 0 0 0 0
wet ALL 2009 100 0 3 1 1 0 0 0 0 0 0 0 0
wet ALL 2010 100 0 1 7 1 0 0 0 0 0 0 0 0
wet ALL 2011 400 2 15 7 5 0 0 0 0 0 0 0 0
wet ALL 2012 400 0 8 14 5 0 0 0 0 0 0 0 0
wet ALL 2013 400 1 16 11 10 0 0 0 0 0 0 0 0
wet NAT 1982 50 1 6 1 3 0 0 0 0 0 0 0 0
wet NAT 1983 50 0 0 2 0 0 0 0 0 0 0 0 0
wet NAT 1984 50 0 2 2 7 0 0 0 0 0 0 0 0
wet NAT 1985 50 0 1 1 3 0 0 0 0 0 0 0 0
wet NAT 1986 50 0 1 0 3 0 0 0 0 0 0 0 0
wet NAT 1987 50 0 1 0 0 0 0 0 0 0 0 0 0
wet NAT 1988 50 0 3 0 4 0 0 0 0 0 0 0 0
wet NAT 1989 50 0 0 3 6 0 0 0 0 0 0 0 0
wet NAT 1990 50 0 1 1 0 0 0 0 0 0 0 0 0
wet NAT 1991 50 1 2 2 4 0 0 0 0 0 0 0 0
wet NAT 1992 50 0 0 0 0 0 0 0 0 0 0 0 0
wet NAT 1993 50 0 0 0 0 0 0 0 0 0 0 0 0
wet NAT 1994 50 7 8 5 3 0 0 0 0 0 0 0 0
wet NAT 1995 50 0 2 1 0 0 0 0 0 0 0 0 0
wet NAT 1996 50 0 0 0 1 0 0 0 0 0 0 0 0
wet NAT 1997 100 0 0 4 0 0 0 0 0 0 0 0 0
wet NAT 1998 100 2 15 12 2 0 0 0 0 0 0 0 0
wet NAT 1999 100 1 16 13 1 0 0 0 0 0 0 0 0
wet NAT 2000 100 0 11 9 7 0 0 0 0 0 0 0 0
wet NAT 2001 100 0 10 7 3 0 0 0 0 0 0 0 0
wet NAT 2002 100 0 3 4 2 0 0 0 0 0 0 0 0
wet NAT 2003 100 3 8 2 6 1 0 0 0 0 0 0 0
wet NAT 2004 100 2 8 6 2 0 0 0 0 0 0 0 0
wet NAT 2005 100 0 8 9 4 0 0 0 0 0 0 0 0
wet NAT 2006 100 0 9 9 2 0 0 0 0 0 0 0 0
wet NAT 2007 100 1 9 11 4 0 0 0 0 0 0 0 0
wet NAT 2008 100 1 1 6 4 0 0 0 0 0 0 0 0
wet NAT 2009 100 5 5 9 1 0 0 0 0 0 0 0 0
wet NAT 2010 100 0 3 5 1 0 0 0 0 0 0 0 0
wet NAT 2011 400 3 29 16 11 0 0 0 0 0 0 0 0
wet NAT 2012 400 1 20 50 7 0 0 0 0 0 0 0 0
wet NAT 2013 400 2 36 52 23 0 0 0 0 0 0 0 0
