event_type scenario year n_sims january february march april may june july august september october november december
hot ALL 1982 50 0 2 0 0 0 0 0 0 1 10 7 10
hot ALL 1983 50 3 3 1 0 0 0 0 0 0 6 7 0
hot ALL 1984 50 1 0 0 0 0 0 0 0 1 5 0 0
hot ALL 1985 50 0 0 0 0 0 0 0 0 0 8 4 1
hot ALL 1986 50 0 1 0 0 0 0 0 0 0 4 2 0
hot ALL 1987 50 1 0 0 0 0 0 0 0 2 18 10 7
hot ALL 1988 50 4 1 0 0 0 0 0 0 0 5 0 0
hot ALL 1989 50 1 0 0 0 0 0 0 0 0 1 1 0
hot ALL 1990 50 1 1 0 0 0 0 0 0 0 11 3 4
hot ALL 1991 50 1 0 0 0 0 0 0 0 0 19 10 7
hot ALL 1992 50 4 0 0 0 0 0 0 0 0 8 6 5
hot ALL 1993 50 4 2 0 0 0 0 0 0 1 11 6 2
hot ALL 1994 50 1 0 0 0 0 0 0 0 0 25 16 1
hot ALL 1995 50 0 2 0 0 0 0 0 0 0 13 5 3
hot ALL 1996 50 0 1 0 0 0 0 0 0 0 3 0 0
hot ALL 1997 100 0 0 0 0 0 0 0 0 0 36 29 18
hot ALL 1998 100 22 15 4 0 0 0 0 0 2 19 1 1
hot ALL 1999 100 1 0 0 0 0 0 0 0 0 8 0 0
hot ALL 2000 100 1 0 0 0 0 0 0 0 2 11 4 0
hot ALL 2001 100 3 6 0 0 0 0 0 0 0 21 5 2
hot ALL 2002 100 4 2 0 0 0 0 0 0 0 43 22 11
hot ALL 2003 100 4 2 1 0 0 0 0 0 2 32 16 2
hot ALL 2004 100 0 0 0 0 0 0 0 0 6 46 34 8
hot ALL 2005 100 8 0 0 0 0 0 0 0 6 33 9 2
hot ALL 2006 100 0 3 1 0 0 0 0 0 2 52 29 6
hot ALL 2007 100 2 1 0 0 0 0 0 0 0 53 24 1
hot ALL 2008 100 3 4 0 0 0 0 0 0 0 28 8 1
hot ALL 2009 100 2 4 0 0 0 0 0 0 2 50 34 30
hot ALL 2010 100 34 23 2 0 0 0 0 0 1 18 2 1
hot ALL 2011 400 4 8 0 0 0 0 0 0 3 95 22 7
hot ALL 2012 400 7 11 3 0 0 0 0 0 13 245 161 56
hot ALL 2013 400 37 14 3 0 0 0 0 0 6 76 43 29
hot NAT 1982 50 0 2 0 0 0 0 0 0 0 6 4 2
hot NAT 1983 50 3 0 0 0 0 0 0 0 0 2 4 0
hot NAT 1984 50 0 0 0 0 0 0 0 0 0 1 0 0
hot NAT 1985 50 0 0 0 0 0 0 0 0 0 3 0 0
hot NAT 1986 50 0 0 0 0 0 0 0 0 0 2 2 0
hot NAT 1987 50 0 0 0 0 0 0 0 0 0 11 4 0
hot NAT 1988 50 0 0 0 0 0 0 0 0 0 0 0 0
hot NAT 1989 50 0 0 0 0 0 0 0 0 0 0 0 0
hot NAT 1990 50 0 0 0 0 0 0 0 0 0 3 2 0
hot NAT 1991 50 0 0 0 0 0 0 0 0 0 2 1 0
hot NAT 1992 50 0 0 0 0 0 0 0 0 0 1 0 0
hot NAT 1993 50 1 1 0 0 0 0 0 0 0 0 3 0
hot NAT 1994 50 0 0 0 0 0 0 0 0 0 4 3 0
hot NAT 1995 50 0 0 0 0 0 0 0 0 0 7 0 0
hot NAT 1996 50 0 1 0 0 0 0 0 0 0 0 0 0
hot NAT 1997 100 0 0 0 0 0 0 0 0 0 11 8 2
hot NAT 1998 100 3 3 0 0 0 0 0 0 1 1 0 0
hot NAT 1999 100 0 0 0 0 0 0 0 0 0 3 0 0
hot NAT 2000 100 0 0 0 0 0 0 0 0 0 2 0 0
hot NAT 2001 100 0 1 0 0 0 0 0 0 0 1 0 0
hot NAT 2002 100 0 0 0 0 0 0 0 0 0 11 5 1
hot NAT 2003 100 1 1 0 0 0 0 0 0 0 5 3 0
hot NAT 2004 100 0 0 0 0 0 0 0 0 0 8 8 3
hot NAT 2005 100 0 0 0 0 0 0 0 0 0 8 1 0
hot NAT 2006 100 3 0 0 0 0 0 0 0 0 8 3 0
hot NAT 2007 100 0 0 0 0 0 0 0 0 0 11 5 2
hot NAT 2008 100 0 0 0 0 0 0 0 0 0 4 2 0
hot NAT 2009 100 0 0 0 0 0 0 0 0 0 7 3 3
hot NAT 2010 100 6 2 1 0 0 0 0 0 0 0 0 0
hot NAT 2011 400 0 0 0 0 0 0 0 0 0 3 3 0
hot NAT 2012 400 0 0 0 0 0 0 0 0 0 55 27 4
hot NAT 2013 400 2 0 0 0 0 0 0 0 0 8 5 1
cold ALL 1982 50 0 0 0 0 0 5 2 0 0 0 0 0
cold ALL 1983 50 0 0 0 0 0 0 1 0 0 0 0 0
cold ALL 1984 50 0 0 0 0 0 0 1 0 0 0 0 0
cold ALL 1985 50 0 0 0 0 0 3 13 0 0 0 0 0
cold ALL 1986 50 0 0 0 0 0 3 5 0 0 0 0 0
cold ALL 1987 50 0 0 0 0 0 0 0 0 0 0 0 0
cold ALL 1988 50 0 0 0 0 0 0 8 0 0 0 0 0
cold ALL 1989 50 0 0 0 0 0 9 11 0 0 0 0 0
cold ALL 1990 50 0 0 0 0 0 1 3 0 0 0 0 0
cold ALL 1991 50 0 0 0 0 0 0 0 0 0 0 0 0
cold ALL 1992 50 0 0 0 0 0 0 4 0 0 0 0 0
cold ALL 1993 50 0 0 0 0 0 2 1 0 0 0 0 0
cold ALL 1994 50 0 0 0 0 0 0 3 0 0 0 0 0
cold ALL 1995 50 0 0 0 0 0 3 2 0 0 0 0 0
cold ALL 1996 50 0 0 0 0 0 12 10 0 0 0 0 0
cold ALL 1997 100 0 0 0 0 0 18 2 0 0 0 0 0
cold ALL 1998 100 0 0 0 0 0 2 1 0 0 0 0 0
cold ALL 1999 100 0 0 0 0 0 13 14 0 0 0 0 0
cold ALL 2000 100 0 0 0 0 0 15 14 1 0 0 0 0
cold ALL 2001 100 0 0 0 0 0 0 3 0 0 0 0 0
cold ALL 2002 100 0 0 0 0 0 0 0 0 0 0 0 0
cold ALL 2003 100 0 0 0 0 0 0 0 0 0 0 0 0
cold ALL 2004 100 0 0 0 0 0 0 4 0 0 0 0 0
cold ALL 2005 100 0 0 0 0 0 0 1 0 0 0 0 0
cold ALL 2006 100 0 0 0 0 0 1 4 0 0 0 0 0
cold ALL 2007 100 0 0 0 0 0 4 1 0 0 0 0 0
cold ALL 2008 100 0 0 0 0 0 2 5 0 0 0 0 0
cold ALL 2009 100 0 0 0 0 0 3 2 0 0 0 0 0
cold ALL 2010 100 0 0 0 0 0 1 0 0 0 0 0 0
cold ALL 2011 400 0 0 0 0 0 34 15 0 0 0 0 0
cold ALL 2012 400 0 0 0 0 0 3 2 0 0 0 0 0
cold ALL 2013 400 0 0 0 0 0 4 5 0 0 0 0 0
cold NAT 1982 50 0 0 0 0 1 14 13 0 0 0 0 0
cold NAT 1983 50 0 0 0 0 0 10 8 0 0 0 0 0
cold NAT 1984 50 0 0 0 0 0 18 21 0 0 0 0 0
cold NAT 1985 50 0 0 0 0 2 17 40 1 0 0 0 0
cold NAT 1986 50 0 0 0 0 0 19 28 0 0 0 0 0
cold NAT 1987 50 0 0 0 0 1 10 2 0 0 0 0 0
cold NAT 1988 50 0 0 0 0 0 15 31 3 0 0 0 0
cold NAT 1989 50 0 0 0 0 2 32 40 1 0 0 0 0
cold NAT 1990 50 0 0 0 0 0 13 21 0 0 0 0 0
cold NAT 1991 50 0 0 0 0 0 14 24 0 0 0 0 0
cold NAT 1992 50 0 0 0 0 0 9 26 1 0 0 0 0
cold NAT 1993 50 0 0 0 0 0 13 15 0 0 0 0 0
cold NAT 1994 50 0 0 0 0 1 18 19 0 0 0 0 0
cold NAT 1995 50 0 0 0 0 0 14 33 2 0 0 0 0
cold NAT 1996 50 0 0 0 0 3 42 47 2 0 0 0 0
cold NAT 1997 100 0 0 0 0 6 76 46 0 0 0 0 0
cold NAT 1998 100 0 0 0 0 0 25 21 1 0 0 0 0
cold NAT 1999 100 0 0 0 0 0 66 91 3 0 0 0 0
cold NAT 2000 100 0 0 0 0 4 63 75 8 0 0 0 0
cold NAT 2001 100 0 0 0 0 0 19 39 0 0 0 0 0
cold NAT 2002 100 0 0 0 0 0 14 30 0 0 0 0 0
cold NAT 2003 100 0 0 0 0 1 14 21 0 0 0 0 0
cold NAT 2004 100 0 0 0 0 1 38 52 0 0 0 0 0
cold NAT 2005 100 0 0 0 0 1 22 47 0 0 0 0 0
cold NAT 2006 100 0 0 0 0 3 49 66 0 0 0 0 0
cold NAT 2007 100 0 0 0 0 0 48 51 0 0 0 0 0
cold NAT 2008 100 0 0 0 0 7 70 84 1 0 0 0 0
cold NAT 2009 100 0 0 0 0 0 62 44 0 0 0 0 0
cold NAT 2010 100 0 0 0 0 0 21 47 0 0 0 0 0
cold NAT 2011 400 0 0 0 0 20 311 318 9 0 0 0 0
cold NAT 2012 400 0 0 0 0 7 172 260 2 0 0 0 0
cold NAT 2013 400 0 0 0 0 7 157 213 6 0 0 0 0
wet ALL 1982 50 0 1 0 0 0 0 0 0 0 0 0 0
wet ALL 1983 50 0 6 0 0 0 0 0 0 0 0 0 0
wet ALL 1984 50 0 0 0 0 0 0 0 0 0 0 0 4
wet ALL 1985 50 0 0 0 0 0 0 0 0 0 0 0 2
wet ALL 1986 50 0 1 0 0 0 0 0 0 0 0 0 0
wet ALL 1987 50 1 1 0 0 0 0 0 0 0 0 0 2
wet ALL 1988 50 1 0 0 0 0 0 0 0 0 0 2 3
wet ALL 1989 50 0 1 0 0 0 0 0 0 0 0 2 0
wet ALL 1990 50 2 0 0 0 0 0 0 0 0 0 0 1
wet ALL 1991 50 1 1 0 0 0 0 0 0 0 0 0 0
wet ALL 1992 50 3 2 3 0 0 0 0 0 0 0 0 0
wet ALL 1993 50 1 0 0 0 0 0 0 0 0 0 0 1
wet ALL 1994 50 2 2 0 0 0 0 0 0 0 0 0 2
wet ALL 1995 50 3 5 0 0 0 0 0 0 0 0 0 3
wet ALL 1996 50 0 1 0 0 0 0 0 0 0 0 4 2
wet ALL 1997 100 1 0 0 0 0 0 0 0 0 0 0 2
wet ALL 1998 100 1 9 0 0 0 0 0 0 0 0 2 5
wet ALL 1999 100 1 0 0 0 0 0 0 0 0 0 4 5
wet ALL 2000 100 0 0 0 0 0 0 0 0 0 0 2 6
wet ALL 2001 100 1 1 0 0 0 0 0 0 0 0 1 4
wet ALL 2002 100 6 6 0 0 0 0 0 0 0 0 0 2
wet ALL 2003 100 12 6 0 0 0 0 0 0 0 0 0 4
wet ALL 2004 100 9 3 1 0 0 0 0 0 0 0 0 1
wet ALL 2005 100 5 7 0 0 0 0 0 0 0 0 1 5
wet ALL 2006 100 0 0 0 0 0 0 0 0 0 0 0 4
wet ALL 2007 100 14 6 0 0 0 0 0 0 0 0 2 3
wet ALL 2008 100 3 1 0 0 0 0 0 0 0 0 1 4
wet ALL 2009 100 2 0 0 0 0 0 0 0 0 0 0 2
wet ALL 2010 100 2 2 0 0 0 0 0 0 0 0 2 10
wet ALL 2011 400 2 2 0 0 0 0 0 0 0 0 3 25
wet ALL 2012 400 11 7 0 0 0 0 0 0 0 0 0 11
wet ALL 2013 400 6 15 1 0 0 0 0 0 0 0 4 13
wet NAT 1982 50 1 0 0 0 0 0 0 0 0 0 0 0
wet NAT 1983 50 2 7 0 0 0 0 0 0 0 0 0 0
wet NAT 1984 50 0 0 0 0 0 0 0 0 0 0 1 0
wet NAT 1985 50 1 1 0 0 0 0 0 0 0 0 0 1
wet NAT 1986 50 0 0 0 0 0 0 0 0 0 0 0 0
wet NAT 1987 50 0 1 0 0 0 0 0 0 0 0 0 2
wet NAT 1988 50 1 2 0 0 0 0 0 0 0 0 0 2
wet NAT 1989 50 2 0 0 0 0 0 0 0 0 0 1 1
wet NAT 1990 50 0 0 1 0 0 0 0 0 0 0 0 2
wet NAT 1991 50 0 2 0 0 0 0 0 0 0 0 0 0
wet NAT 1992 50 0 1 0 0 0 0 0 0 0 0 0 0
wet NAT 1993 50 0 0 0 0 0 0 0 0 0 0 0 2
wet NAT 1994 50 0 0 0 0 0 0 0 0 0 0 0 1
wet NAT 1995 50 0 3 0 0 0 0 0 0 0 0 0 7
wet NAT 1996 50 1 0 0 0 0 0 0 0 0 0 1 0
wet NAT 1997 100 0 0 0 0 0 0 0 0 0 0 0 3
wet NAT 1998 100 4 3 2 0 0 0 0 0 0 0 6 4
wet NAT 1999 100 1 0 0 0 0 0 0 0 0 0 0 6
wet NAT 2000 100 2 1 0 0 0 0 0 0 0 0 0 2
wet NAT 2001 100 0 0 0 0 0 0 0 0 0 0 4 1
wet NAT 2002 100 0 3 0 0 0 0 0 0 0 0 0 2
wet NAT 2003 100 4 1 0 0 0 0 0 0 0 0 0 7
wet NAT 2004 100 3 3 0 0 0 0 0 0 0 0 0 0
wet NAT 2005 100 5 1 1 0 0 0 0 0 0 0 4 1
wet NAT 2006 100 1 1 0 0 0 0 0 0 0 0 1 0
wet NAT 2007 100 1 1 0 0 0 0 0 0 0 0 0 1
wet NAT 2008 100 3 0 0 0 0 0 0 0 0 0 0 0
wet NAT 2009 100 0 0 0 0 0 0 0 0 0 0 0 0
wet NAT 2010 100 0 1 0 0 0 0 0 0 0 0 3 8
wet NAT 2011 400 0 1 0 0 0 0 0 0 0 0 0 10
wet NAT 2012 400 2 2 0 0 0 0 0 0 0 0 1 1
wet NAT 2013 400 2 5 0 0 0 0 0 0 0 0 2 8
