region hot_limits cold_limits wet_limits
Andean-N -20 -20 -12
Andean-S -20 -20 -12
ArabL-E -17 -15 -18
ArabL-N -15 -14 -18
ArabL-W -20 -14 -20
ARG -15 -13 -17
ASEAN-W -14 -13 -20
AUS-NE -13 -14 -17
AUS-SE -13 -14 -15
AUS-W -13 -14 -20
BRA-CW -18 -17 -17
BRA-EN -20 -20 -18
BRA-NE -18 -20 -19
BRA-SEandS -15 -16 -15
BRA-WN -20 -20 -17
CAN-C -12 -13 -14
CAN-E -15 -14 -14
CAN-NE -14 -17 -14
CAN-NW -13 -14 -14
CAN-W -14 -12 -14
CHN-NandNE -14 -13 -15
CHN-NW -14 -13 -17
CHN-SCandE -13 -13 -16
CHN-SW -17 -13 -18
COD -20 -20 -20
DZA -17 -13 -20
EAC -20 -20 -18
ECCAS-N -20 -14 -20
ECO-E -14 -14 -16
ECO-W -14 -13 -15
ECOWAS-NE -17 -14 -20
ECOWAS-S -20 -15 -20
ECOWAS-W -18 -14 -20
EEA-N -15 -13 -14
EEA-S -13 -13 -15
GRL -13 -15 -14
IGAD-C -18 -18 -17
IND -14 -14 -19
KAZ -11 -10 -12
LBY -15 -15 -17
MEX -17 -15 -17
MNG -12 -10 -13
RUS-E -11 -11 -10
RUS-Krasnoyarsk -10 -11 -10
RUS-Sakha -10 -12 -11
RUS-SESiberian -12 -10 -10
RUS-SW -12 -10 -10
RUS-W -11 -15 -10
RUS-WSiberian -10 -10 -10
SADC-E -12 -20 -16
SADC-NW -20 -20 -17
SADC-S -16 -12 -14
SDN -15 -12 -17
USA-Alaska -11 -12 -10
USA-C -11 -10 -10
USA-E -15 -12 -15
USA-NW -10 -10 -13
USA-SW -12 -10 -12
