event_type scenario year n_sims january february march april may june july august september october november december
hot ALL 1982 50 0 0 0 0 0 0 4 0 0 0 0 0
hot ALL 1983 50 0 0 0 0 0 0 2 0 0 0 0 0
hot ALL 1984 50 0 0 0 0 0 0 0 0 0 0 0 0
hot ALL 1985 50 0 0 0 0 0 0 2 0 0 0 0 0
hot ALL 1986 50 0 0 0 0 0 0 1 0 0 0 0 0
hot ALL 1987 50 0 0 0 0 0 0 1 0 0 0 0 0
hot ALL 1988 50 0 0 0 0 0 0 1 0 0 0 0 0
hot ALL 1989 50 0 0 0 0 0 0 5 0 0 0 0 0
hot ALL 1990 50 0 0 0 0 0 0 2 0 0 0 0 0
hot ALL 1991 50 0 0 0 0 0 0 1 0 0 0 0 0
hot ALL 1992 50 0 0 0 0 0 0 0 0 0 0 0 0
hot ALL 1993 50 0 0 0 0 0 0 0 0 0 0 0 0
hot ALL 1994 50 0 0 0 0 0 0 0 0 0 0 0 0
hot ALL 1995 50 0 0 0 0 0 0 3 0 0 0 0 0
hot ALL 1996 50 0 0 0 0 0 0 4 0 0 0 0 0
hot ALL 1997 100 0 0 0 0 0 0 6 0 0 0 0 0
hot ALL 1998 100 0 0 0 0 0 0 6 0 0 0 0 0
hot ALL 1999 100 0 0 0 0 0 0 30 1 0 0 0 0
hot ALL 2000 100 0 0 0 0 0 0 29 0 0 0 0 0
hot ALL 2001 100 0 0 0 0 0 0 17 0 0 0 0 0
hot ALL 2002 100 0 0 0 0 0 0 13 0 0 0 0 0
hot ALL 2003 100 0 0 0 0 0 0 19 0 0 0 0 0
hot ALL 2004 100 0 0 0 0 0 0 32 0 0 0 0 0
hot ALL 2005 100 0 0 0 0 0 0 25 0 0 0 0 0
hot ALL 2006 100 0 0 0 0 0 0 14 0 0 0 0 0
hot ALL 2007 100 0 0 0 0 0 0 16 0 0 0 0 0
hot ALL 2008 100 0 0 0 0 0 0 18 0 0 0 0 0
hot ALL 2009 100 0 0 0 0 0 0 18 0 0 0 0 0
hot ALL 2010 100 0 0 0 0 0 0 34 1 0 0 0 0
hot ALL 2011 400 0 0 0 0 0 1 112 0 0 0 0 0
hot ALL 2012 400 0 0 0 0 0 0 99 2 0 0 0 0
hot ALL 2013 400 0 0 0 0 0 0 129 0 0 0 0 0
hot NAT 1982 50 0 0 0 0 0 0 2 0 0 0 0 0
hot NAT 1983 50 0 0 0 0 0 0 2 0 0 0 0 0
hot NAT 1984 50 0 0 0 0 0 0 5 0 0 0 0 0
hot NAT 1985 50 0 0 0 0 0 0 6 0 0 0 0 0
hot NAT 1986 50 0 0 0 0 0 0 2 0 0 0 0 0
hot NAT 1987 50 0 0 0 0 0 0 1 0 0 0 0 0
hot NAT 1988 50 0 0 0 0 0 0 7 0 0 0 0 0
hot NAT 1989 50 0 0 0 0 0 0 9 0 0 0 0 0
hot NAT 1990 50 0 0 0 0 0 0 3 0 0 0 0 0
hot NAT 1991 50 0 0 0 0 0 0 4 0 0 0 0 0
hot NAT 1992 50 0 0 0 0 0 0 3 0 0 0 0 0
hot NAT 1993 50 0 0 0 0 0 0 4 0 0 0 0 0
hot NAT 1994 50 0 0 0 0 0 0 3 0 0 0 0 0
hot NAT 1995 50 0 0 0 0 0 0 3 0 0 0 0 0
hot NAT 1996 50 0 0 0 0 0 0 4 0 0 0 0 0
hot NAT 1997 100 0 0 0 0 0 0 4 0 0 0 0 0
hot NAT 1998 100 0 0 0 0 0 0 6 0 0 0 0 0
hot NAT 1999 100 0 0 0 0 0 0 17 1 0 0 0 0
hot NAT 2000 100 0 0 0 0 0 0 19 1 0 0 0 0
hot NAT 2001 100 0 0 0 0 0 0 6 0 0 0 0 0
hot NAT 2002 100 0 0 0 0 0 0 10 0 0 0 0 0
hot NAT 2003 100 0 0 0 0 0 0 8 0 0 0 0 0
hot NAT 2004 100 0 0 0 0 0 0 19 0 0 0 0 0
hot NAT 2005 100 0 0 0 0 0 0 8 0 0 0 0 0
hot NAT 2006 100 0 0 0 0 0 0 8 0 0 0 0 0
hot NAT 2007 100 0 0 0 0 0 0 7 0 0 0 0 0
hot NAT 2008 100 0 0 0 0 0 0 18 0 0 0 0 0
hot NAT 2009 100 0 0 0 0 0 0 5 0 0 0 0 0
hot NAT 2010 100 0 0 0 0 0 0 16 0 0 0 0 0
hot NAT 2011 400 0 0 0 0 0 0 58 0 0 0 0 0
hot NAT 2012 400 0 0 0 0 0 0 47 0 0 0 0 0
hot NAT 2013 400 0 0 0 0 0 0 44 0 0 0 0 0
cold ALL 1982 50 1 1 0 0 0 0 0 0 0 0 0 1
cold ALL 1983 50 5 0 0 0 0 0 0 0 0 0 0 1
cold ALL 1984 50 4 0 0 0 0 0 0 0 0 0 0 0
cold ALL 1985 50 5 0 0 0 0 0 0 0 0 0 0 1
cold ALL 1986 50 7 0 0 0 0 0 0 0 0 0 0 1
cold ALL 1987 50 9 1 0 0 0 0 0 0 0 0 0 1
cold ALL 1988 50 2 0 0 0 0 0 0 0 0 0 0 0
cold ALL 1989 50 4 0 0 0 0 0 0 0 0 0 0 1
cold ALL 1990 50 8 0 0 0 0 0 0 0 0 0 0 0
cold ALL 1991 50 6 0 0 0 0 0 0 0 0 0 0 0
cold ALL 1992 50 7 1 0 0 0 0 0 0 0 0 0 1
cold ALL 1993 50 4 0 0 0 0 0 0 0 0 0 0 0
cold ALL 1994 50 5 0 0 0 0 0 0 0 0 0 0 0
cold ALL 1995 50 9 0 0 0 0 0 0 0 0 0 0 0
cold ALL 1996 50 7 0 0 0 0 0 0 0 0 0 0 1
cold ALL 1997 100 9 1 0 0 0 0 0 0 0 0 0 0
cold ALL 1998 100 5 0 0 0 0 0 0 0 0 0 0 0
cold ALL 1999 100 5 0 0 0 0 0 0 0 0 0 0 0
cold ALL 2000 100 6 0 0 0 0 0 0 0 0 0 0 0
cold ALL 2001 100 5 0 0 0 0 0 0 0 0 0 0 0
cold ALL 2002 100 7 0 0 0 0 0 0 0 0 0 0 1
cold ALL 2003 100 14 0 0 0 0 0 0 0 0 0 0 0
cold ALL 2004 100 15 0 0 0 0 0 0 0 0 0 0 3
cold ALL 2005 100 12 0 0 0 0 0 0 0 0 0 0 0
cold ALL 2006 100 9 0 0 0 0 0 0 0 0 0 0 0
cold ALL 2007 100 5 1 0 0 0 0 0 0 0 0 0 0
cold ALL 2008 100 7 0 0 0 0 0 0 0 0 0 0 1
cold ALL 2009 100 6 2 0 0 0 0 0 0 0 0 0 0
cold ALL 2010 100 10 0 0 0 0 0 0 0 0 0 0 0
cold ALL 2011 400 23 1 0 0 0 0 0 0 0 0 0 1
cold ALL 2012 400 28 0 0 0 0 0 0 0 0 0 0 4
cold ALL 2013 400 34 1 0 0 0 0 0 0 0 0 0 3
cold NAT 1982 50 5 0 0 0 0 0 0 0 0 0 0 3
cold NAT 1983 50 6 0 0 0 0 0 0 0 0 0 0 1
cold NAT 1984 50 11 0 0 0 0 0 0 0 0 0 0 0
cold NAT 1985 50 4 1 0 0 0 0 0 0 0 0 0 0
cold NAT 1986 50 7 0 0 0 0 0 0 0 0 0 0 1
cold NAT 1987 50 5 1 0 0 0 0 0 0 0 0 0 1
cold NAT 1988 50 5 0 0 0 0 0 0 0 0 0 0 0
cold NAT 1989 50 5 0 0 0 0 0 0 0 0 0 0 0
cold NAT 1990 50 4 0 0 0 0 0 0 0 0 0 0 3
cold NAT 1991 50 6 1 0 0 0 0 0 0 0 0 0 0
cold NAT 1992 50 5 0 0 0 0 0 0 0 0 0 0 1
cold NAT 1993 50 6 0 0 0 0 0 0 0 0 0 0 1
cold NAT 1994 50 5 0 0 0 0 0 0 0 0 0 0 2
cold NAT 1995 50 4 0 0 0 0 0 0 0 0 0 0 0
cold NAT 1996 50 4 0 0 0 0 0 0 0 0 0 0 1
cold NAT 1997 100 13 0 0 0 0 0 0 0 0 0 0 3
cold NAT 1998 100 12 4 0 0 0 0 0 0 0 0 0 0
cold NAT 1999 100 13 1 0 0 0 0 0 0 0 0 0 3
cold NAT 2000 100 8 0 0 0 0 0 0 0 0 0 0 4
cold NAT 2001 100 11 0 0 0 0 0 0 0 0 0 0 0
cold NAT 2002 100 13 0 0 0 0 0 0 0 0 0 0 0
cold NAT 2003 100 12 5 0 0 0 0 0 0 0 0 0 2
cold NAT 2004 100 17 1 0 0 0 0 0 0 0 0 0 4
cold NAT 2005 100 17 0 0 0 0 0 0 0 0 0 0 2
cold NAT 2006 100 17 0 0 0 0 0 0 0 0 0 0 1
cold NAT 2007 100 8 0 0 0 0 0 0 0 0 0 0 0
cold NAT 2008 100 18 0 0 0 0 0 0 0 0 0 0 1
cold NAT 2009 100 11 2 0 0 0 0 0 0 0 0 0 1
cold NAT 2010 100 8 1 0 0 0 0 0 0 0 0 0 1
cold NAT 2011 400 36 3 0 0 0 0 0 0 0 0 0 8
cold NAT 2012 400 44 5 0 0 0 0 0 0 0 0 0 6
cold NAT 2013 400 70 1 0 0 0 0 0 0 0 0 0 7
wet ALL 1982 50 0 0 0 0 0 0 5 0 0 0 0 0
wet ALL 1983 50 0 0 0 0 0 0 1 0 0 0 0 0
wet ALL 1984 50 0 0 0 0 0 1 3 0 0 0 0 0
wet ALL 1985 50 0 0 0 0 0 1 3 0 0 0 0 0
wet ALL 1986 50 0 0 0 0 0 0 1 0 0 0 0 0
wet ALL 1987 50 0 0 0 0 0 0 1 0 0 0 0 0
wet ALL 1988 50 0 0 0 0 0 0 4 0 0 0 0 0
wet ALL 1989 50 0 0 0 0 0 0 1 0 0 0 0 0
wet ALL 1990 50 0 0 0 0 0 0 2 0 0 0 0 0
wet ALL 1991 50 0 0 0 0 0 0 4 0 0 0 0 0
wet ALL 1992 50 0 0 0 0 0 0 6 0 0 0 0 0
wet ALL 1993 50 0 0 0 0 0 0 2 0 0 0 0 0
wet ALL 1994 50 0 0 0 0 0 0 2 0 0 0 0 0
wet ALL 1995 50 0 0 0 0 0 0 4 0 0 0 0 0
wet ALL 1996 50 0 0 0 0 0 0 2 1 0 0 0 0
wet ALL 1997 100 0 0 0 0 0 1 8 0 0 0 0 0
wet ALL 1998 100 0 0 0 0 0 0 8 0 0 0 0 0
wet ALL 1999 100 0 0 0 0 0 0 9 0 0 0 0 0
wet ALL 2000 100 0 0 0 0 0 1 11 0 0 0 0 0
wet ALL 2001 100 0 0 0 0 0 0 12 0 0 0 0 0
wet ALL 2002 100 0 0 0 0 0 0 11 0 0 0 0 0
wet ALL 2003 100 0 0 0 0 0 1 17 0 0 0 0 0
wet ALL 2004 100 0 0 0 0 0 0 13 0 0 0 0 0
wet ALL 2005 100 0 0 0 0 0 0 12 0 0 0 0 0
wet ALL 2006 100 0 0 0 0 0 0 18 0 0 0 0 0
wet ALL 2007 100 0 0 0 0 0 1 25 0 0 0 0 0
wet ALL 2008 100 0 0 0 0 0 1 11 0 0 0 0 0
wet ALL 2009 100 0 0 0 0 0 0 11 1 0 0 0 0
wet ALL 2010 100 0 0 0 0 0 2 17 1 0 0 0 0
wet ALL 2011 400 0 0 0 0 0 1 61 5 0 0 0 0
wet ALL 2012 400 0 0 0 0 0 3 50 1 0 0 0 0
wet ALL 2013 400 0 0 0 0 0 1 55 2 0 0 0 0
wet NAT 1982 50 0 0 0 0 0 0 12 1 0 0 0 0
wet NAT 1983 50 0 0 0 0 0 0 11 0 0 0 0 0
wet NAT 1984 50 0 0 0 0 0 5 12 0 0 0 0 0
wet NAT 1985 50 0 0 0 0 0 1 7 1 0 0 0 0
wet NAT 1986 50 0 0 0 0 0 1 10 0 0 0 0 0
wet NAT 1987 50 0 0 0 0 0 0 8 0 0 0 0 0
wet NAT 1988 50 0 0 0 0 0 0 13 2 0 0 0 0
wet NAT 1989 50 0 0 0 0 0 0 15 0 0 0 0 0
wet NAT 1990 50 0 0 0 0 0 0 7 1 0 0 0 0
wet NAT 1991 50 0 0 0 0 0 1 8 0 0 0 0 0
wet NAT 1992 50 0 0 0 0 0 0 17 1 0 0 0 0
wet NAT 1993 50 0 0 0 0 0 0 15 1 0 0 0 0
wet NAT 1994 50 0 0 0 0 0 0 14 0 0 0 0 0
wet NAT 1995 50 0 0 0 0 0 1 9 0 0 0 0 0
wet NAT 1996 50 0 0 0 0 0 0 13 0 0 0 0 0
wet NAT 1997 100 0 0 0 0 0 0 12 1 0 0 0 0
wet NAT 1998 100 0 0 0 0 0 0 21 1 0 0 0 0
wet NAT 1999 100 0 0 0 0 0 1 14 3 0 0 0 0
wet NAT 2000 100 0 0 0 0 0 0 21 1 0 0 0 0
wet NAT 2001 100 0 0 0 0 0 1 19 2 0 0 0 0
wet NAT 2002 100 0 0 0 0 0 0 22 0 0 0 0 0
wet NAT 2003 100 0 0 0 0 0 0 33 1 0 0 0 0
wet NAT 2004 100 0 0 0 0 0 1 19 1 0 0 0 0
wet NAT 2005 100 0 0 0 0 0 1 23 2 0 0 0 0
wet NAT 2006 100 0 0 0 0 0 0 22 2 0 0 0 0
wet NAT 2007 100 0 0 0 0 0 1 20 1 0 0 0 0
wet NAT 2008 100 0 0 0 0 0 1 18 2 0 0 0 0
wet NAT 2009 100 0 0 0 0 0 0 16 0 0 0 0 0
wet NAT 2010 100 0 0 0 0 0 2 26 5 0 0 0 0
wet NAT 2011 400 0 0 0 0 0 7 98 16 0 0 0 0
wet NAT 2012 400 0 0 0 0 0 3 67 7 0 0 0 0
wet NAT 2013 400 0 0 0 0 0 6 90 4 0 0 0 0
