event_type scenario year n_sims january february march april may june july august september october november december
hot ALL 1982 50 0 0 0 0 0 0 16 4 0 0 0 0
hot ALL 1983 50 0 0 0 0 0 0 13 4 0 0 0 0
hot ALL 1984 50 0 0 0 0 0 0 3 0 0 0 0 0
hot ALL 1985 50 0 0 0 0 0 1 6 7 0 0 0 0
hot ALL 1986 50 0 0 0 0 0 0 9 1 0 0 0 0
hot ALL 1987 50 0 0 0 0 0 0 11 6 0 0 0 0
hot ALL 1988 50 0 0 0 0 0 0 3 9 0 0 0 0
hot ALL 1989 50 0 0 0 0 0 0 6 3 0 0 0 0
hot ALL 1990 50 0 0 0 0 0 1 4 6 0 0 0 0
hot ALL 1991 50 0 0 0 0 0 0 11 6 0 0 0 0
hot ALL 1992 50 0 0 0 0 0 0 13 7 0 0 0 0
hot ALL 1993 50 0 0 0 0 0 0 14 8 0 0 0 0
hot ALL 1994 50 0 0 0 0 0 0 6 0 0 0 0 0
hot ALL 1995 50 0 0 0 0 0 0 13 6 0 0 0 0
hot ALL 1996 50 0 0 0 0 0 1 10 3 0 0 0 0
hot ALL 1997 100 0 0 0 0 0 1 31 28 0 0 0 0
hot ALL 1998 100 0 0 0 0 0 3 38 17 0 0 0 0
hot ALL 1999 100 0 0 0 0 0 0 21 15 0 0 0 0
hot ALL 2000 100 0 0 0 0 0 0 27 15 0 0 0 0
hot ALL 2001 100 0 0 0 0 0 1 24 11 0 0 0 0
hot ALL 2002 100 0 0 0 0 0 3 27 14 0 0 0 0
hot ALL 2003 100 0 0 0 0 0 3 30 20 0 0 0 0
hot ALL 2004 100 0 0 0 0 0 3 34 21 0 0 0 0
hot ALL 2005 100 0 0 0 0 0 12 40 29 0 0 0 0
hot ALL 2006 100 0 0 0 0 0 3 25 18 0 0 0 0
hot ALL 2007 100 0 0 0 0 0 5 35 26 0 0 0 0
hot ALL 2008 100 0 0 0 0 0 2 35 21 0 0 0 0
hot ALL 2009 100 0 0 0 0 0 1 30 35 0 0 0 0
hot ALL 2010 100 0 0 0 0 0 16 60 42 0 0 0 0
hot ALL 2011 400 0 0 0 0 0 27 196 108 0 0 0 0
hot ALL 2012 400 0 0 0 0 0 15 155 129 0 0 0 0
hot ALL 2013 400 0 0 0 0 0 16 118 81 0 0 0 0
hot NAT 1982 50 0 0 0 0 0 0 5 4 0 0 0 0
hot NAT 1983 50 0 0 0 0 0 0 3 3 0 0 0 0
hot NAT 1984 50 0 0 0 0 0 0 1 0 0 0 0 0
hot NAT 1985 50 0 0 0 0 0 0 3 1 0 0 0 0
hot NAT 1986 50 0 0 0 0 0 0 5 1 0 0 0 0
hot NAT 1987 50 0 0 0 0 0 0 7 2 0 0 0 0
hot NAT 1988 50 0 0 0 0 0 0 2 1 0 0 0 0
hot NAT 1989 50 0 0 0 0 0 0 2 0 0 0 0 0
hot NAT 1990 50 0 0 0 0 0 1 5 5 0 0 0 0
hot NAT 1991 50 0 0 0 0 0 0 4 0 0 0 0 0
hot NAT 1992 50 0 0 0 0 0 0 2 0 0 0 0 0
hot NAT 1993 50 0 0 0 0 0 0 3 1 0 0 0 0
hot NAT 1994 50 0 0 0 0 0 0 0 0 0 0 0 0
hot NAT 1995 50 0 0 0 0 0 0 10 2 0 0 0 0
hot NAT 1996 50 0 0 0 0 0 0 1 0 0 0 0 0
hot NAT 1997 100 0 0 0 0 0 0 16 2 0 0 0 0
hot NAT 1998 100 0 0 0 0 0 0 14 12 0 0 0 0
hot NAT 1999 100 0 0 0 0 0 0 9 0 0 0 0 0
hot NAT 2000 100 0 0 0 0 0 1 8 0 0 0 0 0
hot NAT 2001 100 0 0 0 0 0 0 3 1 0 0 0 0
hot NAT 2002 100 0 0 0 0 0 0 5 0 0 0 0 0
hot NAT 2003 100 0 0 0 0 0 0 6 2 0 0 0 0
hot NAT 2004 100 0 0 0 0 0 0 13 3 0 0 0 0
hot NAT 2005 100 0 0 0 0 0 1 13 3 0 0 0 0
hot NAT 2006 100 0 0 0 0 0 0 7 4 0 0 0 0
hot NAT 2007 100 0 0 0 0 0 0 8 1 0 0 0 0
hot NAT 2008 100 0 0 0 0 0 0 1 0 0 0 0 0
hot NAT 2009 100 0 0 0 0 0 0 5 0 0 0 0 0
hot NAT 2010 100 0 0 0 0 0 3 18 3 0 0 0 0
hot NAT 2011 400 0 0 0 0 0 1 40 11 0 0 0 0
hot NAT 2012 400 0 0 0 0 0 0 22 6 0 0 0 0
hot NAT 2013 400 0 0 0 0 0 0 9 3 0 0 0 0
cold ALL 1982 50 4 0 0 0 0 0 0 0 0 0 0 2
cold ALL 1983 50 8 0 0 0 0 0 0 0 0 0 0 1
cold ALL 1984 50 6 1 0 0 0 0 0 0 0 0 0 0
cold ALL 1985 50 5 0 0 0 0 0 0 0 0 0 0 1
cold ALL 1986 50 4 1 0 0 0 0 0 0 0 0 0 4
cold ALL 1987 50 5 0 0 0 0 0 0 0 0 0 0 2
cold ALL 1988 50 4 0 0 0 0 0 0 0 0 0 0 1
cold ALL 1989 50 3 0 0 0 0 0 0 0 0 0 0 2
cold ALL 1990 50 5 0 0 0 0 0 0 0 0 0 0 1
cold ALL 1991 50 8 0 0 0 0 0 0 0 0 0 0 1
cold ALL 1992 50 3 0 0 0 0 0 0 0 0 0 0 2
cold ALL 1993 50 6 1 0 0 0 0 0 0 0 0 0 2
cold ALL 1994 50 5 1 0 0 0 0 0 0 0 0 0 1
cold ALL 1995 50 5 1 0 0 0 0 0 0 0 0 0 0
cold ALL 1996 50 2 0 0 0 0 0 0 0 0 0 0 1
cold ALL 1997 100 4 3 0 0 0 0 0 0 0 0 0 0
cold ALL 1998 100 8 0 0 0 0 0 0 0 0 0 0 2
cold ALL 1999 100 3 0 0 0 0 0 0 0 0 0 0 0
cold ALL 2000 100 3 0 0 0 0 0 0 0 0 0 0 2
cold ALL 2001 100 6 2 0 0 0 0 0 0 0 0 0 4
cold ALL 2002 100 8 1 0 0 0 0 0 0 0 0 0 4
cold ALL 2003 100 4 0 0 0 0 0 0 0 0 0 0 0
cold ALL 2004 100 9 1 0 0 0 0 0 0 0 0 0 3
cold ALL 2005 100 3 0 0 0 0 0 0 0 0 0 0 2
cold ALL 2006 100 4 0 0 0 0 0 0 0 0 0 0 4
cold ALL 2007 100 5 0 0 0 0 0 0 0 0 0 0 2
cold ALL 2008 100 4 0 0 0 0 0 0 0 0 0 0 0
cold ALL 2009 100 5 0 0 0 0 0 0 0 0 0 0 3
cold ALL 2010 100 8 0 0 0 0 0 0 0 0 0 0 0
cold ALL 2011 400 9 0 0 0 0 0 0 0 0 0 0 2
cold ALL 2012 400 3 0 0 0 0 0 0 0 0 0 0 4
cold ALL 2013 400 20 2 0 0 0 0 0 0 0 0 0 4
cold NAT 1982 50 6 0 0 0 0 0 0 0 0 0 0 3
cold NAT 1983 50 12 2 0 0 0 0 0 0 0 0 0 5
cold NAT 1984 50 2 2 0 0 0 0 0 0 0 0 0 2
cold NAT 1985 50 7 0 0 0 0 0 0 0 0 0 0 2
cold NAT 1986 50 9 3 0 0 0 0 0 0 0 0 0 1
cold NAT 1987 50 13 2 0 0 0 0 0 0 0 0 0 1
cold NAT 1988 50 6 1 0 0 0 0 0 0 0 0 0 2
cold NAT 1989 50 4 0 0 0 0 0 0 0 0 0 0 1
cold NAT 1990 50 8 1 0 0 0 0 0 0 0 0 0 1
cold NAT 1991 50 9 2 0 0 0 0 0 0 0 0 0 6
cold NAT 1992 50 8 3 0 0 0 0 0 0 0 0 0 6
cold NAT 1993 50 6 2 0 0 0 0 0 0 0 0 0 8
cold NAT 1994 50 12 1 0 0 0 0 0 0 0 0 0 1
cold NAT 1995 50 10 2 0 0 0 0 0 0 0 0 0 3
cold NAT 1996 50 10 1 0 0 0 0 0 0 0 0 0 4
cold NAT 1997 100 12 5 0 0 0 0 0 0 0 0 0 5
cold NAT 1998 100 13 1 0 0 0 0 0 0 0 0 0 3
cold NAT 1999 100 3 0 0 0 0 0 0 0 0 0 0 2
cold NAT 2000 100 4 1 0 0 0 0 0 0 0 0 0 4
cold NAT 2001 100 11 2 0 0 0 0 0 0 0 0 0 9
cold NAT 2002 100 13 0 0 0 0 0 0 0 0 0 0 6
cold NAT 2003 100 14 1 0 0 0 0 0 0 0 0 0 7
cold NAT 2004 100 23 1 0 0 0 0 0 0 0 0 0 8
cold NAT 2005 100 16 3 0 0 0 0 0 0 0 0 0 4
cold NAT 2006 100 10 0 0 0 0 0 0 0 0 0 0 6
cold NAT 2007 100 10 2 0 0 0 0 0 0 0 0 0 2
cold NAT 2008 100 10 2 0 0 0 0 0 0 0 0 0 3
cold NAT 2009 100 20 3 0 0 0 0 0 0 0 0 0 5
cold NAT 2010 100 22 6 0 0 0 0 0 0 0 0 0 2
cold NAT 2011 400 32 3 0 0 0 0 0 0 0 0 0 5
cold NAT 2012 400 22 2 0 0 0 0 0 0 0 0 0 20
cold NAT 2013 400 62 6 0 0 0 0 0 0 0 0 0 22
wet ALL 1982 50 0 0 0 0 3 0 0 0 0 1 0 0
wet ALL 1983 50 0 0 0 0 2 0 0 0 0 0 0 0
wet ALL 1984 50 0 0 0 0 2 1 1 0 1 0 0 0
wet ALL 1985 50 0 0 0 1 0 1 0 2 8 0 1 0
wet ALL 1986 50 0 0 0 0 0 1 0 0 0 0 0 0
wet ALL 1987 50 0 0 0 1 2 0 1 0 0 0 0 0
wet ALL 1988 50 0 0 0 0 3 0 5 1 0 0 0 0
wet ALL 1989 50 0 0 0 0 0 0 0 0 1 0 0 0
wet ALL 1990 50 0 0 1 2 1 0 1 1 0 0 0 0
wet ALL 1991 50 0 0 0 1 7 1 0 1 0 0 0 0
wet ALL 1992 50 0 0 0 5 4 1 0 0 1 0 0 0
wet ALL 1993 50 0 0 0 3 1 3 0 0 0 0 0 0
wet ALL 1994 50 0 0 0 0 1 1 0 0 0 0 0 0
wet ALL 1995 50 0 0 0 1 1 0 0 0 2 0 0 0
wet ALL 1996 50 0 0 0 1 0 1 0 0 0 0 0 0
wet ALL 1997 100 0 0 0 2 3 2 0 0 1 0 0 0
wet ALL 1998 100 0 0 0 0 3 1 0 2 0 0 0 0
wet ALL 1999 100 0 0 0 0 3 1 0 3 4 0 0 0
wet ALL 2000 100 0 0 0 1 2 1 0 0 0 0 0 0
wet ALL 2001 100 0 0 0 0 6 1 0 0 0 0 0 0
wet ALL 2002 100 0 0 0 1 3 2 0 0 0 0 0 0
wet ALL 2003 100 0 0 0 1 5 0 0 1 0 0 0 0
wet ALL 2004 100 0 0 0 1 4 3 0 1 5 1 0 0
wet ALL 2005 100 0 0 0 1 0 1 1 5 4 0 0 0
wet ALL 2006 100 0 0 0 0 1 1 0 1 1 0 0 0
wet ALL 2007 100 0 0 0 1 0 1 1 2 1 2 0 0
wet ALL 2008 100 0 0 0 0 0 1 0 2 0 0 0 0
wet ALL 2009 100 0 0 0 1 5 3 0 0 3 0 0 0
wet ALL 2010 100 0 0 0 0 3 1 0 9 3 0 0 0
wet ALL 2011 400 0 0 0 1 1 0 0 16 24 0 0 0
wet ALL 2012 400 0 0 0 8 6 6 2 2 0 4 1 0
wet ALL 2013 400 0 0 0 3 2 3 2 3 3 1 0 0
wet NAT 1982 50 0 0 0 1 6 1 0 0 1 0 1 0
wet NAT 1983 50 0 1 1 3 1 0 0 0 1 0 0 0
wet NAT 1984 50 0 0 0 0 1 2 0 0 0 0 0 0
wet NAT 1985 50 0 0 0 3 3 2 0 1 1 0 1 0
wet NAT 1986 50 0 0 0 0 6 1 0 0 0 0 0 0
wet NAT 1987 50 0 0 0 0 2 0 0 2 1 0 0 0
wet NAT 1988 50 0 0 1 1 2 3 2 3 0 0 0 0
wet NAT 1989 50 0 0 0 2 3 2 0 0 1 0 0 0
wet NAT 1990 50 0 0 0 3 3 4 0 0 1 0 0 0
wet NAT 1991 50 0 0 0 5 5 2 0 0 1 0 0 0
wet NAT 1992 50 0 0 1 4 9 0 0 0 0 0 2 0
wet NAT 1993 50 0 0 1 5 4 0 0 0 1 0 0 0
wet NAT 1994 50 0 0 0 1 2 0 0 1 0 0 0 0
wet NAT 1995 50 0 0 1 0 1 1 0 1 2 0 0 0
wet NAT 1996 50 0 0 0 2 1 1 1 0 0 0 0 0
wet NAT 1997 100 0 0 0 2 5 1 0 0 0 0 0 0
wet NAT 1998 100 0 0 0 2 2 1 0 3 2 0 0 0
wet NAT 1999 100 0 0 0 3 2 1 1 4 2 0 0 0
wet NAT 2000 100 0 0 0 4 6 1 0 0 1 0 0 0
wet NAT 2001 100 0 0 0 2 3 2 1 1 2 0 0 0
wet NAT 2002 100 0 0 0 1 3 0 0 0 2 1 0 0
wet NAT 2003 100 0 0 0 1 7 2 0 4 2 0 0 0
wet NAT 2004 100 0 0 1 3 1 2 1 4 1 1 0 0
wet NAT 2005 100 0 0 0 1 1 1 0 4 4 0 0 0
wet NAT 2006 100 0 0 0 1 4 2 1 1 2 0 0 0
wet NAT 2007 100 0 0 0 1 2 0 0 1 1 1 0 0
wet NAT 2008 100 0 0 0 0 2 0 1 1 2 0 0 0
wet NAT 2009 100 0 0 1 2 3 3 0 2 2 1 1 0
wet NAT 2010 100 0 0 0 1 1 1 0 5 1 0 0 0
wet NAT 2011 400 0 0 0 0 2 5 0 16 27 0 0 0
wet NAT 2012 400 0 0 1 5 11 6 2 3 3 7 1 1
wet NAT 2013 400 0 0 0 3 8 8 1 2 5 1 0 0
