\relax 
\providecommand\hyper@newdestlabel[2]{}
\providecommand\HyperFirstAtBeginDocument{\AtBeginDocument}
\HyperFirstAtBeginDocument{\ifx\hyper@anchor\@undefined
\global\let\oldcontentsline\contentsline
\gdef\contentsline#1#2#3#4{\oldcontentsline{#1}{#2}{#3}}
\global\let\oldnewlabel\newlabel
\gdef\newlabel#1#2{\newlabelxx{#1}#2}
\gdef\newlabelxx#1#2#3#4#5#6{\oldnewlabel{#1}{{#2}{#3}}}
\AtEndDocument{\ifx\hyper@anchor\@undefined
\let\contentsline\oldcontentsline
\let\newlabel\oldnewlabel
\fi}
\fi}
\global\let\hyper@last\relax 
\gdef\HyperFirstAtBeginDocument#1{#1}
\providecommand\HyField@AuxAddToFields[1]{}
\providecommand\HyField@AuxAddToCoFields[2]{}
\citation{NAS_2016}
\@writefile{toc}{\contentsline {section}{\numberline {1}Introduction}{2}{section.1}}
\newlabel{introduction}{{1}{2}{Introduction}{section.1}{}}
\citation{Jeon2016,HansenG_AuffhammerM_SolowAR_2014,PallP_AinaT_etalii_2011}
\citation{NealeRB_ChenC-C_etalii_2012}
\citation{StoneDA_PallP_2016}
\citation{AngelilO_StoneD_etalii_2016}
\citation{StoneDA_PallP_2016}
\citation{HurrellJW_HackJJ_etalii_2008}
\@writefile{toc}{\contentsline {section}{\numberline {2}Attribution framework}{4}{section.2}}
\newlabel{app_fmwk}{{2}{4}{Attribution framework}{section.2}{}}
\@writefile{toc}{\contentsline {subsection}{\numberline {2.1}Climate model simulations}{4}{subsection.2.1}}
\citation{AllenM_2003,StoneDA_AllenMR_2005a,HansenG_AuffhammerM_SolowAR_2014}
\@writefile{lot}{\contentsline {table}{\numberline {1}{\ignorespaces Ensemble sizes for the CAM5.1 simulations from 1982-2013.}}{5}{table.1}}
\newlabel{ensSize}{{1}{5}{Ensemble sizes for the CAM5.1 simulations from 1982-2013}{table.1}{}}
\@writefile{toc}{\contentsline {subsection}{\numberline {2.2}Using the risk ratio for attributional statements}{5}{subsection.2.2}}
\citation{StoneDA_AllenMR_2005a}
\citation{NAS_2016}
\@writefile{toc}{\contentsline {subsection}{\numberline {2.3}Modeling probabilities and event definition}{6}{subsection.2.3}}
\citation{PallP_AinaT_etalii_2011}
\@writefile{toc}{\contentsline {section}{\numberline {3}Hierarchical statistical model for ALL and NAT probabilities}{7}{section.3}}
\newlabel{methods}{{3}{7}{Hierarchical statistical model for ALL and NAT probabilities}{section.3}{}}
\newlabel{zDefs}{{1}{7}{Hierarchical statistical model for ALL and NAT probabilities}{equation.3.1}{}}
\citation{glmm}
\newlabel{likelihood}{{2}{8}{Hierarchical statistical model for ALL and NAT probabilities}{equation.3.2}{}}
\newlabel{full_model}{{3}{8}{Hierarchical statistical model for ALL and NAT probabilities}{equation.3.3}{}}
\newlabel{level3}{{4}{8}{Hierarchical statistical model for ALL and NAT probabilities}{equation.3.4}{}}
\citation{GelmanBDA}
\citation{Dersimonian1986}
\newlabel{posterior}{{5}{10}{Hierarchical statistical model for ALL and NAT probabilities}{equation.3.5}{}}
\@writefile{toc}{\contentsline {subsection}{\numberline {3.1}Risk ratio modeling}{11}{subsection.3.1}}
\newlabel{rrm}{{3.1}{11}{Risk ratio modeling}{subsection.3.1}{}}
\newlabel{riskratio_calc}{{6}{11}{Risk ratio modeling}{equation.3.6}{}}
\newlabel{approxRR}{{7}{11}{Risk ratio modeling}{equation.3.7}{}}
\@writefile{toc}{\contentsline {section}{\numberline {4}A diagnostic tool for event attribution sensitivity to oceanic variability}{12}{section.4}}
\newlabel{diag1}{{4}{12}{A diagnostic tool for event attribution sensitivity to oceanic variability}{section.4}{}}
\@writefile{lof}{\contentsline {figure}{\numberline {1}{\ignorespaces Weather Risk Attribution Forecast (WRAF) regions ({\url  {http://www.csag.uct.ac.za/\nobreakspace  {}daithi/forecast}}). The two regions used as case studies are labelled as: (a) the southern Andean Community and (b) Krasnoyarsk.}}{14}{figure.1}}
\newlabel{WRAF}{{1}{14}{Weather Risk Attribution Forecast (WRAF) regions ({\url {http://www.csag.uct.ac.za/~daithi/forecast}}). The two regions used as case studies are labelled as: (a) the southern Andean Community and (b) Krasnoyarsk}{figure.1}{}}
\@writefile{toc}{\contentsline {section}{\numberline {5}Case studies using climate model ensembles}{14}{section.5}}
\newlabel{results}{{5}{14}{Case studies using climate model ensembles}{section.5}{}}
\citation{IPCC2007}
\citation{IPCC2007}
\citation{IPCC2007}
\@writefile{lof}{\contentsline {figure}{\numberline {2}{\ignorespaces Global mean temperature measurements between 50$^\circ $S and 50$^\circ $N, calculated as an land-ocean ensemble average from the 50 members that covered the entire time period from 1980 to 2013, using the low-pass filter described in Appendix 3.A of \cite  {IPCC2007}.}}{15}{figure.2}}
\newlabel{temps}{{2}{15}{Global mean temperature measurements between 50$^\circ $S and 50$^\circ $N, calculated as an land-ocean ensemble average from the 50 members that covered the entire time period from 1980 to 2013, using the low-pass filter described in Appendix 3.A of \cite {IPCC2007}}{figure.2}{}}
\@writefile{toc}{\contentsline {subsection}{\numberline {5.1}Case Study 1: southern Andean Community}{16}{subsection.5.1}}
\@writefile{toc}{\contentsline {subsection}{\numberline {5.2}Case Study 2: Krasnoyarsk, Russia}{17}{subsection.5.2}}
\@writefile{toc}{\contentsline {section}{\numberline {6}Global results summarizing the effect of ocean variability}{18}{section.6}}
\newlabel{global}{{6}{18}{Global results summarizing the effect of ocean variability}{section.6}{}}
\newlabel{riskratio_calc2}{{6}{18}{Global results summarizing the effect of ocean variability}{section.6}{}}
\newlabel{riskratio_adj}{{8}{18}{Global results summarizing the effect of ocean variability}{equation.6.8}{}}
\citation{PallP_AinaT_etalii_2011}
\@writefile{toc}{\contentsline {section}{\numberline {7}Discussion}{21}{section.7}}
\newlabel{discussion}{{7}{21}{Discussion}{section.7}{}}
\@writefile{lot}{\contentsline {table}{\numberline {2}{\ignorespaces Comparison between the importance of the three major assumptions underlying the atmospheric modelling approach to diagnosing the role of anthropogenic emissions in extreme weather, as distinguished between the tropics and extratropics.}}{22}{table.2}}
\newlabel{TAB_SUMMARY}{{2}{22}{Comparison between the importance of the three major assumptions underlying the atmospheric modelling approach to diagnosing the role of anthropogenic emissions in extreme weather, as distinguished between the tropics and extratropics}{table.2}{}}
\citation{PallP_AinaT_etalii_2011}
\newlabel{newSD}{{9}{24}{Discussion}{equation.7.9}{}}
\newlabel{newCI}{{10}{25}{Discussion}{equation.7.10}{}}
\newlabel{CI005}{{11}{25}{Discussion}{equation.7.11}{}}
\@writefile{lof}{\contentsline {figure}{\numberline {3}{\ignorespaces Probabilities and risk ratio estimates for extremes in the southern Andean Community.}}{27}{figure.3}}
\newlabel{SA_estimates}{{3}{27}{Probabilities and risk ratio estimates for extremes in the southern Andean Community}{figure.3}{}}
\@writefile{lof}{\contentsline {figure}{\numberline {4}{\ignorespaces Probabilities and risk ratio estimates for extremes in Krasnoyarsk, Russia.}}{28}{figure.4}}
\newlabel{KR_estimates}{{4}{28}{Probabilities and risk ratio estimates for extremes in Krasnoyarsk, Russia}{figure.4}{}}
\@writefile{lof}{\contentsline {figure}{\numberline {5}{\ignorespaces Posterior distributions for $\sigma $, the effect of ocean variability on log risk ratio, for each event type in the southern Andean Community (top) and Krasnoyarsk (bottom).}}{29}{figure.5}}
\newlabel{both_sds}{{5}{29}{Posterior distributions for $\sigma $, the effect of ocean variability on log risk ratio, for each event type in the southern Andean Community (top) and Krasnoyarsk (bottom)}{figure.5}{}}
\@writefile{lof}{\contentsline {figure}{\numberline {6}{\ignorespaces Unadjusted ($RR_t$; left) and adjusted ($\setbox \z@ \hbox {\frozen@everymath \@emptytoks \mathsurround \z@ $\textstyle RR$}\mathaccent "0365{RR}_t$; right) risk ratio for hot events in the northern European Economic Area (EEA), shown as the blue region in northern Europe in Figure \ref  {WRAF}. The adjusted risk is calculated using a fixed covariate value (global mean temperature) for all years.}}{30}{figure.6}}
\newlabel{hot_adjRR}{{6}{30}{Unadjusted ($RR_t$; left) and adjusted ($\widetilde {RR}_t$; right) risk ratio for hot events in the northern European Economic Area (EEA), shown as the blue region in northern Europe in Figure \ref {WRAF}. The adjusted risk is calculated using a fixed covariate value (global mean temperature) for all years}{figure.6}{}}
\@writefile{lof}{\contentsline {figure}{\numberline {7}{\ignorespaces 95\% interval estimates of $\pi $ for a exceedance threshold of 1 for hot events, with the horizontal black line denoting the 0.95 cutoff for $\pi $. The intervals represent an estimate of the proportion of years for which the risk ratio is greater than 1, assuming a stationary climate (i.e., using $\setbox \z@ \hbox {\frozen@everymath \@emptytoks \mathsurround \z@ $\textstyle RR$}\mathaccent "0365{RR}_t$). Black intervals represent regions for which oceanic variability potentially impacts the consistency of attribution statements over time. The varying shades of red, on the other hand, are used to denote regions for which oceanic variability does \textit  {not} affect consistency of attribution statements, for several different thresholds (i.e., $RR>1$, $RR>2$, and $RR>10$).}}{31}{figure.7}}
\newlabel{hot_EP}{{7}{31}{95\% interval estimates of $\pi $ for a exceedance threshold of 1 for hot events, with the horizontal black line denoting the 0.95 cutoff for $\pi $. The intervals represent an estimate of the proportion of years for which the risk ratio is greater than 1, assuming a stationary climate (i.e., using $\widetilde {RR}_t$). Black intervals represent regions for which oceanic variability potentially impacts the consistency of attribution statements over time. The varying shades of red, on the other hand, are used to denote regions for which oceanic variability does \textit {not} affect consistency of attribution statements, for several different thresholds (i.e., $RR>1$, $RR>2$, and $RR>10$)}{figure.7}{}}
\@writefile{lof}{\contentsline {figure}{\numberline {8}{\ignorespaces 95\% interval estimates of $\pi $ for \textit  {not} exceeding a threshold of 1 for cold events, with the horizontal black line denoting the 0.95 cutoff for $\pi $. The intervals represent an estimate of the proportion of years for which the risk ratio is less than 1, assuming a stationary climate (i.e., using $\setbox \z@ \hbox {\frozen@everymath \@emptytoks \mathsurround \z@ $\textstyle RR$}\mathaccent "0365{RR}_t$). Black intervals again represent regions for which oceanic variability potentially impacts the consistency of attribution statements over time. Alternatively, the varying shades of blue are used to denote regions for which oceanic variability does \textit  {not} affect consistency of attribution statements, for several different thresholds (i.e., $RR<1$, $RR<1/2$, and $RR<1/10$).}}{32}{figure.8}}
\newlabel{cold_EP}{{8}{32}{95\% interval estimates of $\pi $ for \textit {not} exceeding a threshold of 1 for cold events, with the horizontal black line denoting the 0.95 cutoff for $\pi $. The intervals represent an estimate of the proportion of years for which the risk ratio is less than 1, assuming a stationary climate (i.e., using $\widetilde {RR}_t$). Black intervals again represent regions for which oceanic variability potentially impacts the consistency of attribution statements over time. Alternatively, the varying shades of blue are used to denote regions for which oceanic variability does \textit {not} affect consistency of attribution statements, for several different thresholds (i.e., $RR<1$, $RR<1/2$, and $RR<1/10$)}{figure.8}{}}
\@writefile{lof}{\contentsline {figure}{\numberline {9}{\ignorespaces 95\% interval estimates of $\pi $ for a exceedance threshold of 1 for wet events. The intervals represent an estimate of the proportion of years for which the risk ratio is greater than 1, assuming a stationary climate (i.e., using $\setbox \z@ \hbox {\frozen@everymath \@emptytoks \mathsurround \z@ $\textstyle RR$}\mathaccent "0365{RR}_t$). Gray intervals now represent regions for which oceanic variability \textit  {does} impact the consistency of attribution statements over time, or, alternatively, the risk ratio is close enough to unity that variations above and below 1 are insignificant in light of sampling variability. Blue (yellow/red) shadings represent regions for which there is a varying degree of evidence for a consistent increase (decrease) in the probability of an extremely wet month, with darker colors corresponding to stronger evidence.}}{33}{figure.9}}
\newlabel{wet_EP}{{9}{33}{95\% interval estimates of $\pi $ for a exceedance threshold of 1 for wet events. The intervals represent an estimate of the proportion of years for which the risk ratio is greater than 1, assuming a stationary climate (i.e., using $\widetilde {RR}_t$). Gray intervals now represent regions for which oceanic variability \textit {does} impact the consistency of attribution statements over time, or, alternatively, the risk ratio is close enough to unity that variations above and below 1 are insignificant in light of sampling variability. Blue (yellow/red) shadings represent regions for which there is a varying degree of evidence for a consistent increase (decrease) in the probability of an extremely wet month, with darker colors corresponding to stronger evidence}{figure.9}{}}
\@writefile{lof}{\contentsline {figure}{\numberline {10}{\ignorespaces 95\% interval estimates of $\sigma $, the effect of ocean variability, for hot events across WRAF regions. The colors correspond to those in Figure \ref  {hot_EP}.}}{34}{figure.10}}
\newlabel{hotIV}{{10}{34}{95\% interval estimates of $\sigma $, the effect of ocean variability, for hot events across WRAF regions. The colors correspond to those in Figure \ref {hot_EP}}{figure.10}{}}
\@writefile{lof}{\contentsline {figure}{\numberline {11}{\ignorespaces 95\% interval estimates of $\sigma $, the effect of ocean variability, for cold events across WRAF regions. The colors correspond to those in Figure \ref  {cold_EP}.}}{35}{figure.11}}
\newlabel{coldIV}{{11}{35}{95\% interval estimates of $\sigma $, the effect of ocean variability, for cold events across WRAF regions. The colors correspond to those in Figure \ref {cold_EP}}{figure.11}{}}
\@writefile{lof}{\contentsline {figure}{\numberline {12}{\ignorespaces 95\% interval estimates of $\sigma $, the effect of ocean variability, for wet events across WRAF regions. The colors correspond to those in Figure \ref  {wet_EP}.}}{36}{figure.12}}
\newlabel{wetIV}{{12}{36}{95\% interval estimates of $\sigma $, the effect of ocean variability, for wet events across WRAF regions. The colors correspond to those in Figure \ref {wet_EP}}{figure.12}{}}
\bibstyle{apalike}
\bibdata{risk_ratio_over_time}
\bibcite{NAS_2016}{{1}{2016}{{NAS}}{{}}}
\bibcite{AllenM_2003}{{2}{2003}{{Allen}}{{}}}
\bibcite{AngelilO_StoneD_etalii_2016}{{3}{2016}{{Ang\'elil et~al.}}{{}}}
\bibcite{Dersimonian1986}{{4}{1986}{{DerSimonian and Laird}}{{}}}
\bibcite{GelmanBDA}{{5}{2013}{{Gelman et~al.}}{{}}}
\bibcite{HansenG_AuffhammerM_SolowAR_2014}{{6}{2014}{{Hansen et~al.}}{{}}}
\bibcite{HurrellJW_HackJJ_etalii_2008}{{7}{2008}{{Hurrell et~al.}}{{}}}
\bibcite{Jeon2016}{{8}{2016}{{Jeon et~al.}}{{}}}
\bibcite{glmm}{{9}{2005}{{McCulloch and Neuhaus}}{{}}}
\bibcite{NealeRB_ChenC-C_etalii_2012}{{10}{2012}{{Neale et~al.}}{{}}}
\bibcite{PallP_AinaT_etalii_2011}{{11}{2011}{{Pall et~al.}}{{}}}
\bibcite{StoneDA_AllenMR_2005a}{{12}{2005}{{Stone and Allen}}{{}}}
\bibcite{StoneDA_PallP_2016}{{13}{2016}{{Stone and Pall}}{{}}}
\bibcite{IPCC2007}{{14}{2007}{{Trenberth et~al.}}{{}}}
\@writefile{toc}{\contentsline {section}{\numberline {A}Details for the derivation of the confidence interval of $\phi _p$}{39}{appendix.A}}
\newlabel{CIdetails}{{A}{39}{Details for the derivation of the confidence interval of $\phi _p$}{appendix.A}{}}
\newlabel{newSampDist}{{A.1}{39}{Details for the derivation of the confidence interval of $\phi _p$}{equation.A.1}{}}
\@writefile{toc}{\contentsline {section}{\numberline {B}Supplemental Figures}{40}{appendix.B}}
\newlabel{suppFig}{{B}{40}{Supplemental Figures}{appendix.B}{}}
\@writefile{lof}{\contentsline {figure}{\numberline {13}{\ignorespaces Empirical event probabilities for the southern Andean Community.}}{40}{figure.13}}
\newlabel{sacProbs}{{13}{40}{Empirical event probabilities for the southern Andean Community}{figure.13}{}}
\@writefile{lof}{\contentsline {figure}{\numberline {14}{\ignorespaces Empirical event probabilities for Krasnoyarsk, Russia.}}{41}{figure.14}}
\newlabel{KrasProbs}{{14}{41}{Empirical event probabilities for Krasnoyarsk, Russia}{figure.14}{}}
