\relax 
\providecommand\hyper@newdestlabel[2]{}
\providecommand\HyperFirstAtBeginDocument{\AtBeginDocument}
\HyperFirstAtBeginDocument{\ifx\hyper@anchor\@undefined
\global\let\oldcontentsline\contentsline
\gdef\contentsline#1#2#3#4{\oldcontentsline{#1}{#2}{#3}}
\global\let\oldnewlabel\newlabel
\gdef\newlabel#1#2{\newlabelxx{#1}#2}
\gdef\newlabelxx#1#2#3#4#5#6{\oldnewlabel{#1}{{#2}{#3}}}
\AtEndDocument{\ifx\hyper@anchor\@undefined
\let\contentsline\oldcontentsline
\let\newlabel\oldnewlabel
\fi}
\fi}
\global\let\hyper@last\relax 
\gdef\HyperFirstAtBeginDocument#1{#1}
\providecommand\HyField@AuxAddToFields[1]{}
\providecommand\HyField@AuxAddToCoFields[2]{}
\@writefile{toc}{\contentsline {section}{\numberline {1}Prior specification}{1}{section.1}}
\newlabel{prior}{{1}{1}{Prior specification}{section.1}{}}
\newlabel{decomp_prior}{{1}{1}{Prior specification}{equation.1.1}{}}
\newlabel{final_prior}{{2}{2}{Prior specification}{equation.1.2}{}}
\@writefile{toc}{\contentsline {section}{\numberline {2}Markov chain Monte Carlo}{2}{section.2}}
\newlabel{indiv_likelihood}{{3}{3}{Markov chain Monte Carlo}{equation.2.3}{}}
\newlabel{likelihood}{{4}{3}{Markov chain Monte Carlo}{equation.2.4}{}}
\newlabel{post}{{5}{3}{Markov chain Monte Carlo}{equation.2.5}{}}
\@writefile{toc}{\contentsline {subsection}{\numberline {2.1}Traditional Gibbs sampler with Metropolis-Hastings}{3}{subsection.2.1}}
\@writefile{toc}{\contentsline {subsection}{\numberline {2.2}Ancillarity-Sufficiency Interweaving Strategy (ASIS) MCMC}{4}{subsection.2.2}}
\newlabel{model2a}{{6}{5}{Ancillarity-Sufficiency Interweaving Strategy (ASIS) MCMC}{equation.2.6}{}}
\newlabel{model2b}{{7}{5}{Ancillarity-Sufficiency Interweaving Strategy (ASIS) MCMC}{equation.2.7}{}}
\newlabel{model3a}{{8}{5}{Ancillarity-Sufficiency Interweaving Strategy (ASIS) MCMC}{equation.2.8}{}}
\newlabel{model3b}{{9}{5}{Ancillarity-Sufficiency Interweaving Strategy (ASIS) MCMC}{equation.2.9}{}}
\@writefile{toc}{\contentsline {section}{\numberline {3}Software and data}{7}{section.3}}
\@writefile{lot}{\contentsline {table}{\numberline {1}{\ignorespaces Version of {\tt  R} and other packages used to generate the results and plots in the main text.}}{8}{table.1}}
\newlabel{versions}{{1}{8}{Version of {\tt R} and other packages used to generate the results and plots in the main text}{table.1}{}}
\@writefile{toc}{\contentsline {subsection}{\numberline {3.1}Data files}{8}{subsection.3.1}}
\@writefile{toc}{\contentsline {subsection}{\numberline {3.2}Primary functions}{9}{subsection.3.2}}
